%TF.GenerationSoftware,KiCad,Pcbnew,4.0.7*%
%TF.CreationDate,2018-05-16T21:00:11+02:00*%
%TF.ProjectId,Front,46726F6E742E6B696361645F70636200,rev?*%
%TF.FileFunction,Soldermask,Top*%
%FSLAX46Y46*%
G04 Gerber Fmt 4.6, Leading zero omitted, Abs format (unit mm)*
G04 Created by KiCad (PCBNEW 4.0.7) date Wed May 16 21:00:11 2018*
%MOMM*%
%LPD*%
G01*
G04 APERTURE LIST*
%ADD10C,0.100000*%
%ADD11C,1.900000*%
%ADD12R,1.900000X1.900000*%
%ADD13R,2.100000X2.100000*%
%ADD14O,2.100000X2.100000*%
%ADD15C,2.200000*%
%ADD16R,2.200000X2.200000*%
%ADD17C,3.600000*%
G04 APERTURE END LIST*
D10*
D11*
X25910000Y-29210000D03*
X69090000Y-29210000D03*
X71630000Y-29210000D03*
X46230000Y-1270000D03*
X43690000Y-1270000D03*
X41150000Y-1270000D03*
X38610000Y-1270000D03*
X36070000Y-1270000D03*
X33530000Y-1270000D03*
X30990000Y-1270000D03*
X28450000Y-1270000D03*
X25910000Y-1270000D03*
X23370000Y-1270000D03*
D12*
X23370000Y-29210000D03*
D11*
X71630000Y-1270000D03*
X69090000Y-1270000D03*
X66550000Y-1270000D03*
X64010000Y-1270000D03*
X61470000Y-1270000D03*
X58930000Y-1270000D03*
X56390000Y-1270000D03*
X53850000Y-1270000D03*
X51310000Y-1270000D03*
X48770000Y-1270000D03*
D13*
X76200000Y-40640000D03*
D14*
X76200000Y-43180000D03*
X78740000Y-40640000D03*
X78740000Y-43180000D03*
X81280000Y-40640000D03*
X81280000Y-43180000D03*
X83820000Y-40640000D03*
X83820000Y-43180000D03*
X86360000Y-40640000D03*
X86360000Y-43180000D03*
D15*
X84250000Y-10020000D03*
X89250000Y-10020000D03*
X89250000Y-24520000D03*
X86750000Y-24520000D03*
X84250000Y-24520000D03*
D16*
X10160000Y-41910000D03*
D15*
X10160000Y-39370000D03*
D17*
X8250000Y-4000000D03*
X86750000Y-4000000D03*
X86750000Y-30540000D03*
X8250000Y-30540000D03*
M02*
