EESchema Schematic File Version 4
LIBS:Main-cache
EELAYER 26 0
EELAYER END
$Descr A4 11693 8268
encoding utf-8
Sheet 4 4
Title ""
Date ""
Rev ""
Comp ""
Comment1 ""
Comment2 ""
Comment3 ""
Comment4 ""
$EndDescr
$Comp
L Main-rescue:MCP6074 U6
U 3 1 5AB83532
P 6550 4950
F 0 "U6" H 6550 5150 50  0000 L CNN
F 1 "MCP6074" H 6550 4750 50  0000 L CNN
F 2 "Housings_SOIC:SOIC-14_3.9x8.7mm_Pitch1.27mm" H 6500 5050 50  0001 C CNN
F 3 "" H 6600 5150 50  0001 C CNN
	3    6550 4950
	1    0    0    -1  
$EndComp
$Comp
L Device:R R32
U 1 1 5AB83539
P 7200 4950
F 0 "R32" V 7280 4950 50  0000 C CNN
F 1 "100" V 7200 4950 50  0000 C CNN
F 2 "Resistors_SMD:R_0805_HandSoldering" V 7130 4950 50  0001 C CNN
F 3 "" H 7200 4950 50  0001 C CNN
	1    7200 4950
	0    -1   -1   0   
$EndComp
$Comp
L Main-rescue:Q_NMOS_GDS Q1
U 1 1 5AB83540
P 7700 4950
F 0 "Q1" H 7900 5000 50  0000 L CNN
F 1 "BTS141" H 7900 4900 50  0000 L CNN
F 2 "TO_SOT_Packages_THT:TO-220-3_Vertical" H 7900 5050 50  0001 C CNN
F 3 "" H 7700 4950 50  0001 C CNN
	1    7700 4950
	1    0    0    -1  
$EndComp
$Comp
L Device:R R34
U 1 1 5AB83547
P 7450 5150
F 0 "R34" V 7530 5150 50  0000 C CNN
F 1 "10k" V 7450 5150 50  0000 C CNN
F 2 "Resistors_SMD:R_0805_HandSoldering" V 7380 5150 50  0001 C CNN
F 3 "" H 7450 5150 50  0001 C CNN
	1    7450 5150
	1    0    0    -1  
$EndComp
$Comp
L Device:R R35
U 1 1 5AB8354E
P 7800 5700
F 0 "R35" V 7880 5700 50  0000 C CNN
F 1 "0.1" V 7800 5700 50  0000 C CNN
F 2 "footprints:R_2818_HandSoldering" V 7730 5700 50  0001 C CNN
F 3 "" H 7800 5700 50  0001 C CNN
F 4 "shunt" V 7800 5700 60  0001 C CNN "Extra"
	1    7800 5700
	1    0    0    -1  
$EndComp
$Comp
L Main-rescue:GND #PWR035
U 1 1 5AB83555
P 7800 6000
F 0 "#PWR035" H 7800 5750 50  0001 C CNN
F 1 "GND" H 7800 5850 50  0000 C CNN
F 2 "" H 7800 6000 50  0001 C CNN
F 3 "" H 7800 6000 50  0001 C CNN
	1    7800 6000
	1    0    0    -1  
$EndComp
$Comp
L Main-rescue:GND #PWR036
U 1 1 5AB83569
P 6450 5250
F 0 "#PWR036" H 6450 5000 50  0001 C CNN
F 1 "GND" H 6450 5100 50  0000 C CNN
F 2 "" H 6450 5250 50  0001 C CNN
F 3 "" H 6450 5250 50  0001 C CNN
	1    6450 5250
	1    0    0    -1  
$EndComp
$Comp
L Device:R R30
U 1 1 5AB8356F
P 7200 3150
F 0 "R30" V 7280 3150 50  0000 C CNN
F 1 "178k" V 7200 3150 50  0000 C CNN
F 2 "Resistors_SMD:R_0805_HandSoldering" V 7130 3150 50  0001 C CNN
F 3 "" H 7200 3150 50  0001 C CNN
F 4 "precise" V 7200 3150 60  0001 C CNN "Extra"
	1    7200 3150
	1    0    0    -1  
$EndComp
$Comp
L Device:R R31
U 1 1 5AB83576
P 7200 3550
F 0 "R31" V 7280 3550 50  0000 C CNN
F 1 "10k" V 7200 3550 50  0000 C CNN
F 2 "Resistors_SMD:R_0805_HandSoldering" V 7130 3550 50  0001 C CNN
F 3 "" H 7200 3550 50  0001 C CNN
F 4 "precise" V 7200 3550 60  0001 C CNN "Extra"
	1    7200 3550
	1    0    0    -1  
$EndComp
$Comp
L Main-rescue:GND #PWR037
U 1 1 5AB8357D
P 7200 3750
F 0 "#PWR037" H 7200 3500 50  0001 C CNN
F 1 "GND" H 7200 3600 50  0000 C CNN
F 2 "" H 7200 3750 50  0001 C CNN
F 3 "" H 7200 3750 50  0001 C CNN
	1    7200 3750
	1    0    0    -1  
$EndComp
$Comp
L Main-rescue:GND #PWR038
U 1 1 5AB83583
P 6600 3750
F 0 "#PWR038" H 6600 3500 50  0001 C CNN
F 1 "GND" H 6600 3600 50  0000 C CNN
F 2 "" H 6600 3750 50  0001 C CNN
F 3 "" H 6600 3750 50  0001 C CNN
	1    6600 3750
	1    0    0    -1  
$EndComp
$Comp
L Device:R R33
U 1 1 5AB83589
P 7350 5450
F 0 "R33" V 7430 5450 50  0000 C CNN
F 1 "1k" V 7350 5450 50  0000 C CNN
F 2 "Resistors_SMD:R_0805_HandSoldering" V 7280 5450 50  0001 C CNN
F 3 "" H 7350 5450 50  0001 C CNN
	1    7350 5450
	0    -1   -1   0   
$EndComp
$Comp
L Device:C C29
U 1 1 5AB83590
P 7000 5200
F 0 "C29" H 7025 5300 50  0000 L CNN
F 1 "100n" H 7025 5100 50  0000 L CNN
F 2 "Capacitors_SMD:C_0805_HandSoldering" H 7038 5050 50  0001 C CNN
F 3 "" H 7000 5200 50  0001 C CNN
	1    7000 5200
	1    0    0    -1  
$EndComp
$Comp
L Main-rescue:GND #PWR039
U 1 1 5AB83597
P 3150 5250
F 0 "#PWR039" H 3150 5000 50  0001 C CNN
F 1 "GND" H 3150 5100 50  0000 C CNN
F 2 "" H 3150 5250 50  0001 C CNN
F 3 "" H 3150 5250 50  0001 C CNN
	1    3150 5250
	1    0    0    -1  
$EndComp
$Comp
L Main-rescue:GND #PWR040
U 1 1 5AB8359E
P 6600 1800
F 0 "#PWR040" H 6600 1550 50  0001 C CNN
F 1 "GND" H 6600 1650 50  0000 C CNN
F 2 "" H 6600 1800 50  0001 C CNN
F 3 "" H 6600 1800 50  0001 C CNN
	1    6600 1800
	1    0    0    -1  
$EndComp
$Comp
L Main-rescue:MCP4921 U4
U 1 1 5AB835A4
P 3150 4850
F 0 "U4" H 3400 5275 50  0000 L CNN
F 1 "MCP4921" H 3400 5200 50  0000 L CNN
F 2 "Housings_SOIC:SOIC-8_3.9x4.9mm_Pitch1.27mm" H 4150 4750 50  0001 C CNN
F 3 "" H 4150 4750 50  0001 C CNN
	1    3150 4850
	1    0    0    -1  
$EndComp
$Comp
L Main-rescue:GND #PWR041
U 1 1 5AB835AB
P 3200 3000
F 0 "#PWR041" H 3200 2750 50  0001 C CNN
F 1 "GND" H 3200 2850 50  0000 C CNN
F 2 "" H 3200 3000 50  0001 C CNN
F 3 "" H 3200 3000 50  0001 C CNN
	1    3200 3000
	1    0    0    -1  
$EndComp
$Comp
L Main-rescue:GND #PWR042
U 1 1 5AB835B1
P 3300 3000
F 0 "#PWR042" H 3300 2750 50  0001 C CNN
F 1 "GND" H 3300 2850 50  0000 C CNN
F 2 "" H 3300 3000 50  0001 C CNN
F 3 "" H 3300 3000 50  0001 C CNN
	1    3300 3000
	1    0    0    -1  
$EndComp
$Comp
L Device:R R40
U 1 1 5AB835B7
P 9050 2500
F 0 "R40" V 9130 2500 50  0000 C CNN
F 1 "R" V 9050 2500 50  0000 C CNN
F 2 "Resistors_SMD:R_0805_HandSoldering" V 8980 2500 50  0001 C CNN
F 3 "" H 9050 2500 50  0001 C CNN
	1    9050 2500
	1    0    0    -1  
$EndComp
$Comp
L Device:C C30
U 1 1 5AB835BE
P 9050 2850
F 0 "C30" H 9075 2950 50  0000 L CNN
F 1 "C" H 9075 2750 50  0000 L CNN
F 2 "Capacitors_SMD:C_0805_HandSoldering" H 9088 2700 50  0001 C CNN
F 3 "" H 9050 2850 50  0001 C CNN
	1    9050 2850
	1    0    0    -1  
$EndComp
$Comp
L Main-rescue:GND #PWR043
U 1 1 5AB835C5
P 9050 3050
F 0 "#PWR043" H 9050 2800 50  0001 C CNN
F 1 "GND" H 9050 2900 50  0000 C CNN
F 2 "" H 9050 3050 50  0001 C CNN
F 3 "" H 9050 3050 50  0001 C CNN
	1    9050 3050
	1    0    0    -1  
$EndComp
$Comp
L Device:R R21
U 1 1 5AB835CB
P 4250 4850
F 0 "R21" V 4330 4850 50  0000 C CNN
F 1 "12k" V 4250 4850 50  0000 C CNN
F 2 "Resistors_SMD:R_0805_HandSoldering" V 4180 4850 50  0001 C CNN
F 3 "" H 4250 4850 50  0001 C CNN
F 4 "precise" V 4250 4850 60  0001 C CNN "Extra"
	1    4250 4850
	0    -1   -1   0   
$EndComp
$Comp
L Device:R R22
U 1 1 5AB835D2
P 4500 5100
F 0 "R22" V 4580 5100 50  0000 C CNN
F 1 "3k" V 4500 5100 50  0000 C CNN
F 2 "Resistors_SMD:R_0805_HandSoldering" V 4430 5100 50  0001 C CNN
F 3 "" H 4500 5100 50  0001 C CNN
F 4 "precise" V 4500 5100 60  0001 C CNN "Extra"
	1    4500 5100
	1    0    0    -1  
$EndComp
$Comp
L Main-rescue:GND #PWR044
U 1 1 5AB835D9
P 4500 5250
F 0 "#PWR044" H 4500 5000 50  0001 C CNN
F 1 "GND" H 4500 5100 50  0000 C CNN
F 2 "" H 4500 5250 50  0001 C CNN
F 3 "" H 4500 5250 50  0001 C CNN
	1    4500 5250
	1    0    0    -1  
$EndComp
Text Label 1250 2200 0    60   ~ 0
Vref
Text Label 3350 4350 0    60   ~ 0
Vref
Text Label 3300 2000 0    60   ~ 0
Vref
$Comp
L Main-rescue:D_Zener D5
U 1 1 5AB835E2
P 750 2400
F 0 "D5" H 750 2500 50  0000 C CNN
F 1 "LM4040D25" H 750 2300 50  0000 C CNN
F 2 "footprints:D_SOT-23_KAN" H 750 2400 50  0001 C CNN
F 3 "" H 750 2400 50  0001 C CNN
	1    750  2400
	0    1    1    0   
$EndComp
$Comp
L Device:R R17
U 1 1 5AB835E9
P 750 2000
F 0 "R17" V 830 2000 50  0000 C CNN
F 1 "300" V 750 2000 50  0000 C CNN
F 2 "Resistors_SMD:R_0805_HandSoldering" V 680 2000 50  0001 C CNN
F 3 "" H 750 2000 50  0001 C CNN
	1    750  2000
	1    0    0    -1  
$EndComp
$Comp
L Main-rescue:GND #PWR045
U 1 1 5AB835F0
P 750 2650
F 0 "#PWR045" H 750 2400 50  0001 C CNN
F 1 "GND" H 750 2500 50  0000 C CNN
F 2 "" H 750 2650 50  0001 C CNN
F 3 "" H 750 2650 50  0001 C CNN
	1    750  2650
	1    0    0    -1  
$EndComp
$Comp
L Main-rescue:MCP3204 U5
U 1 1 5AB835F6
P 3200 2500
F 0 "U5" H 3000 2925 50  0000 R CNN
F 1 "MCP3204" H 3000 2850 50  0000 R CNN
F 2 "Housings_SOIC:SOIC-14_3.9x8.7mm_Pitch1.27mm" H 4100 2200 50  0001 C CNN
F 3 "" H 4100 2200 50  0001 C CNN
	1    3200 2500
	-1   0    0    -1  
$EndComp
$Comp
L Device:R R28
U 1 1 5AB835FD
P 6900 2350
F 0 "R28" V 6980 2350 50  0000 C CNN
F 1 "3k" V 6900 2350 50  0000 C CNN
F 2 "Resistors_SMD:R_0805_HandSoldering" V 6830 2350 50  0001 C CNN
F 3 "" H 6900 2350 50  0001 C CNN
F 4 "precise" V 6900 2350 60  0001 C CNN "Extra"
	1    6900 2350
	1    0    0    -1  
$EndComp
$Comp
L Device:R R27
U 1 1 5AB83604
P 6500 2150
F 0 "R27" V 6580 2150 50  0000 C CNN
F 1 "12k" V 6500 2150 50  0000 C CNN
F 2 "Resistors_SMD:R_0805_HandSoldering" V 6430 2150 50  0001 C CNN
F 3 "" H 6500 2150 50  0001 C CNN
F 4 "precise" V 6500 2150 60  0001 C CNN "Extra"
	1    6500 2150
	0    -1   -1   0   
$EndComp
$Comp
L Main-rescue:GND #PWR046
U 1 1 5AB8360B
P 6900 2500
F 0 "#PWR046" H 6900 2250 50  0001 C CNN
F 1 "GND" H 6900 2350 50  0000 C CNN
F 2 "" H 6900 2500 50  0001 C CNN
F 3 "" H 6900 2500 50  0001 C CNN
	1    6900 2500
	1    0    0    -1  
$EndComp
$Comp
L Main-rescue:MCP6074 U6
U 1 1 5AB83611
P 6500 1500
F 0 "U6" H 6500 1700 50  0000 L CNN
F 1 "MCP6074" H 6500 1300 50  0000 L CNN
F 2 "Housings_SOIC:SOIC-14_3.9x8.7mm_Pitch1.27mm" H 6450 1600 50  0001 C CNN
F 3 "" H 6550 1700 50  0001 C CNN
	1    6500 1500
	-1   0    0    -1  
$EndComp
$Comp
L Main-rescue:MCP6074 U6
U 2 1 5AB83618
P 6500 3450
F 0 "U6" H 6500 3650 50  0000 L CNN
F 1 "MCP6074" H 6500 3250 50  0000 L CNN
F 2 "Housings_SOIC:SOIC-14_3.9x8.7mm_Pitch1.27mm" H 6450 3550 50  0001 C CNN
F 3 "" H 6550 3650 50  0001 C CNN
	2    6500 3450
	-1   0    0    -1  
$EndComp
$Comp
L Device:C C28
U 1 1 5AB8361F
P 6200 4550
F 0 "C28" H 6225 4650 50  0000 L CNN
F 1 "100n" H 6225 4450 50  0000 L CNN
F 2 "Capacitors_SMD:C_0805_HandSoldering" H 6238 4400 50  0001 C CNN
F 3 "" H 6200 4550 50  0001 C CNN
	1    6200 4550
	0    1    1    0   
$EndComp
$Comp
L Main-rescue:GND #PWR047
U 1 1 5AB83626
P 5950 4600
F 0 "#PWR047" H 5950 4350 50  0001 C CNN
F 1 "GND" H 5950 4450 50  0000 C CNN
F 2 "" H 5950 4600 50  0001 C CNN
F 3 "" H 5950 4600 50  0001 C CNN
	1    5950 4600
	1    0    0    -1  
$EndComp
Wire Wire Line
	6850 4950 7000 4950
Wire Wire Line
	7350 4950 7450 4950
Wire Wire Line
	7450 5000 7450 4950
Connection ~ 7450 4950
Wire Wire Line
	7800 5150 7800 5350
Wire Wire Line
	6250 5050 6200 5050
Wire Wire Line
	6200 5050 6200 5450
Connection ~ 7800 5350
Wire Wire Line
	10550 3900 10550 4350
Wire Wire Line
	7800 2300 7800 2600
Wire Wire Line
	10550 2300 10550 3350
Connection ~ 7800 5450
Wire Wire Line
	7450 5300 7450 5350
Wire Wire Line
	7450 5350 7800 5350
Wire Wire Line
	6800 3550 6850 3550
Wire Wire Line
	6850 3550 6850 3950
Wire Wire Line
	6850 3950 6100 3950
Wire Wire Line
	6100 3950 6100 3450
Wire Wire Line
	5950 3450 6100 3450
Wire Wire Line
	7200 3300 7200 3350
Wire Wire Line
	7200 3700 7200 3750
Wire Wire Line
	6800 3350 6850 3350
Connection ~ 7200 3350
Wire Wire Line
	7500 5450 7800 5450
Wire Wire Line
	6000 5450 6200 5450
Wire Wire Line
	7200 2950 7200 3000
Connection ~ 6100 3450
Wire Wire Line
	5950 1500 6100 1500
Wire Wire Line
	9050 2700 9050 2650
Wire Wire Line
	9050 3050 9050 3000
Wire Wire Line
	9950 3700 9950 3350
Wire Wire Line
	8800 3350 9950 3350
Wire Wire Line
	9950 4000 9950 4350
Wire Wire Line
	750  1750 750  1850
Wire Wire Line
	3350 4450 3350 4350
Wire Wire Line
	3300 2100 3300 2000
Wire Wire Line
	750  2150 750  2200
Wire Wire Line
	750  2200 1050 2200
Connection ~ 750  2200
Wire Wire Line
	6800 1600 6900 1600
Wire Wire Line
	6900 1600 6900 2150
Wire Wire Line
	6100 1500 6100 2150
Connection ~ 6100 1500
Wire Wire Line
	6900 2150 6650 2150
Connection ~ 6900 2150
Wire Wire Line
	6100 2150 6350 2150
Wire Wire Line
	6450 4500 6450 4550
Text Notes 10200 3950 0    60   ~ 0
0-50V\n0-5A
Text Notes 7300 3400 0    60   ~ 0
0-50V -> 0-2.5V
Text Notes 7000 1650 0    60   ~ 0
0-5A -> 0-2.5V
Text Notes 4600 4700 0    60   ~ 0
0-2.5V -> 0-5A
Text Notes 950  1900 0    60   ~ 0
2.5V reference voltage
$Comp
L Device:C C22
U 1 1 5AB8367E
P 2850 1950
F 0 "C22" H 2875 2050 50  0000 L CNN
F 1 "100n" H 2875 1850 50  0000 L CNN
F 2 "Capacitors_SMD:C_0805_HandSoldering" H 2888 1800 50  0001 C CNN
F 3 "" H 2850 1950 50  0001 C CNN
	1    2850 1950
	0    1    1    0   
$EndComp
$Comp
L Device:C C23
U 1 1 5AB83685
P 2900 4350
F 0 "C23" H 2925 4450 50  0000 L CNN
F 1 "100n" H 2925 4250 50  0000 L CNN
F 2 "Capacitors_SMD:C_0805_HandSoldering" H 2938 4200 50  0001 C CNN
F 3 "" H 2900 4350 50  0001 C CNN
	1    2900 4350
	0    1    1    0   
$EndComp
$Comp
L Device:C C19
U 1 1 5AB8368C
P 1050 2400
F 0 "C19" H 1075 2500 50  0000 L CNN
F 1 "100n" H 1075 2300 50  0000 L CNN
F 2 "Capacitors_SMD:C_0805_HandSoldering" H 1088 2250 50  0001 C CNN
F 3 "" H 1050 2400 50  0001 C CNN
	1    1050 2400
	1    0    0    -1  
$EndComp
$Comp
L Main-rescue:Thermistor TH1
U 1 1 5AB83693
P 4850 4050
F 0 "TH1" V 4950 4100 50  0000 C CNN
F 1 "Thermistor" V 4750 4050 50  0000 C BNN
F 2 "footprints:SolderWirePad_2x_0-8mmDrill" H 4850 4050 50  0001 C CNN
F 3 "" H 4850 4050 50  0001 C CNN
	1    4850 4050
	1    0    0    -1  
$EndComp
$Comp
L Main-rescue:GND #PWR048
U 1 1 5AB836A1
P 2650 4400
F 0 "#PWR048" H 2650 4150 50  0001 C CNN
F 1 "GND" H 2650 4250 50  0000 C CNN
F 2 "" H 2650 4400 50  0001 C CNN
F 3 "" H 2650 4400 50  0001 C CNN
	1    2650 4400
	1    0    0    -1  
$EndComp
Wire Wire Line
	3150 4300 3150 4350
Wire Wire Line
	3200 1900 3200 1950
$Comp
L Main-rescue:GND #PWR049
U 1 1 5AB836A9
P 2600 2000
F 0 "#PWR049" H 2600 1750 50  0001 C CNN
F 1 "GND" H 2600 1850 50  0000 C CNN
F 2 "" H 2600 2000 50  0001 C CNN
F 3 "" H 2600 2000 50  0001 C CNN
	1    2600 2000
	1    0    0    -1  
$EndComp
$Comp
L Device:C C25
U 1 1 5AB836AF
P 5200 5100
F 0 "C25" H 5225 5200 50  0000 L CNN
F 1 "100n" H 5225 5000 50  0000 L CNN
F 2 "Capacitors_SMD:C_0805_HandSoldering" H 5238 4950 50  0001 C CNN
F 3 "" H 5200 5100 50  0001 C CNN
	1    5200 5100
	1    0    0    -1  
$EndComp
$Comp
L Main-rescue:GND #PWR050
U 1 1 5AB836B7
P 5200 5250
F 0 "#PWR050" H 5200 5000 50  0001 C CNN
F 1 "GND" H 5200 5100 50  0000 C CNN
F 2 "" H 5200 5250 50  0001 C CNN
F 3 "" H 5200 5250 50  0001 C CNN
	1    5200 5250
	1    0    0    -1  
$EndComp
$Comp
L Main-rescue:Q_NMOS_GDS Q2
U 1 1 5AB836BD
P 10450 5250
F 0 "Q2" H 10650 5300 50  0000 L CNN
F 1 "IRLR3110ZPBF" H 10650 5200 50  0000 L CNN
F 2 "TO_SOT_Packages_SMD:TO-252-2" H 10650 5350 50  0001 C CNN
F 3 "" H 10450 5250 50  0001 C CNN
	1    10450 5250
	1    0    0    -1  
$EndComp
$Comp
L Main-rescue:MCP6074 U6
U 4 1 5AB836C4
P 9900 5250
F 0 "U6" H 9900 5450 50  0000 L CNN
F 1 "MCP6074" H 9900 5050 50  0000 L CNN
F 2 "Housings_SOIC:SOIC-14_3.9x8.7mm_Pitch1.27mm" H 9850 5350 50  0001 C CNN
F 3 "" H 9950 5450 50  0001 C CNN
	4    9900 5250
	1    0    0    -1  
$EndComp
Wire Wire Line
	10200 5250 10250 5250
Wire Wire Line
	10550 5450 10550 5950
Wire Wire Line
	8800 5350 9500 5350
$Comp
L Main-rescue:GND #PWR051
U 1 1 5AB836CE
P 9800 5550
F 0 "#PWR051" H 9800 5300 50  0001 C CNN
F 1 "GND" H 9800 5400 50  0000 C CNN
F 2 "" H 9800 5550 50  0001 C CNN
F 3 "" H 9800 5550 50  0001 C CNN
	1    9800 5550
	1    0    0    -1  
$EndComp
Wire Wire Line
	7800 2300 9050 2300
Connection ~ 9950 3350
Connection ~ 10550 3350
Connection ~ 10550 4350
Wire Wire Line
	9050 2350 9050 2300
Connection ~ 9050 2300
Wire Wire Line
	10550 5950 7800 5950
Wire Wire Line
	7800 5850 7800 5950
Connection ~ 7800 5950
$Comp
L Device:C C27
U 1 1 5AB836DF
P 5500 3650
F 0 "C27" H 5525 3750 50  0000 L CNN
F 1 "1u" H 5525 3550 50  0000 L CNN
F 2 "Capacitors_SMD:C_0805_HandSoldering" H 5538 3500 50  0001 C CNN
F 3 "" H 5500 3650 50  0001 C CNN
	1    5500 3650
	1    0    0    -1  
$EndComp
$Comp
L Device:R R26
U 1 1 5AB836E6
P 5800 3450
F 0 "R26" V 5880 3450 50  0000 C CNN
F 1 "33k" V 5800 3450 50  0000 C CNN
F 2 "Resistors_SMD:R_0805_HandSoldering" V 5730 3450 50  0001 C CNN
F 3 "" H 5800 3450 50  0001 C CNN
	1    5800 3450
	0    1    1    0   
$EndComp
Wire Wire Line
	5250 3450 5500 3450
Wire Wire Line
	5500 3450 5500 3500
Wire Wire Line
	5250 3450 5250 2500
Connection ~ 5500 3450
$Comp
L Main-rescue:GND #PWR052
U 1 1 5AB836F1
P 5500 3800
F 0 "#PWR052" H 5500 3550 50  0001 C CNN
F 1 "GND" H 5500 3650 50  0000 C CNN
F 2 "" H 5500 3800 50  0001 C CNN
F 3 "" H 5500 3800 50  0001 C CNN
	1    5500 3800
	1    0    0    -1  
$EndComp
$Comp
L Device:C C26
U 1 1 5AB836F7
P 5500 1700
F 0 "C26" H 5525 1800 50  0000 L CNN
F 1 "1u" H 5525 1600 50  0000 L CNN
F 2 "Capacitors_SMD:C_0805_HandSoldering" H 5538 1550 50  0001 C CNN
F 3 "" H 5500 1700 50  0001 C CNN
	1    5500 1700
	1    0    0    -1  
$EndComp
$Comp
L Device:R R25
U 1 1 5AB836FE
P 5800 1500
F 0 "R25" V 5880 1500 50  0000 C CNN
F 1 "33k" V 5800 1500 50  0000 C CNN
F 2 "Resistors_SMD:R_0805_HandSoldering" V 5730 1500 50  0001 C CNN
F 3 "" H 5800 1500 50  0001 C CNN
	1    5800 1500
	0    1    1    0   
$EndComp
$Comp
L Main-rescue:GND #PWR053
U 1 1 5AB83705
P 5500 1850
F 0 "#PWR053" H 5500 1600 50  0001 C CNN
F 1 "GND" H 5500 1700 50  0000 C CNN
F 2 "" H 5500 1850 50  0001 C CNN
F 3 "" H 5500 1850 50  0001 C CNN
	1    5500 1850
	1    0    0    -1  
$EndComp
Wire Wire Line
	5250 1500 5500 1500
Wire Wire Line
	5500 1500 5500 1550
Wire Wire Line
	5250 1500 5250 2400
Connection ~ 5500 1500
$Comp
L Device:R R36
U 1 1 5AB8370F
P 8800 3550
F 0 "R36" V 8880 3550 50  0000 C CNN
F 1 "200k" V 8800 3550 50  0000 C CNN
F 2 "Resistors_SMD:R_0805_HandSoldering" V 8730 3550 50  0001 C CNN
F 3 "" H 8800 3550 50  0001 C CNN
	1    8800 3550
	1    0    0    -1  
$EndComp
$Comp
L Device:R R37
U 1 1 5AB83716
P 8800 3950
F 0 "R37" V 8880 3950 50  0000 C CNN
F 1 "10k" V 8800 3950 50  0000 C CNN
F 2 "Resistors_SMD:R_0805_HandSoldering" V 8730 3950 50  0001 C CNN
F 3 "" H 8800 3950 50  0001 C CNN
	1    8800 3950
	1    0    0    -1  
$EndComp
Wire Wire Line
	8800 3700 8800 3750
Connection ~ 8800 3750
$Comp
L Main-rescue:GND #PWR054
U 1 1 5AB8371F
P 8800 4100
F 0 "#PWR054" H 8800 3850 50  0001 C CNN
F 1 "GND" H 8800 3950 50  0000 C CNN
F 2 "" H 8800 4100 50  0001 C CNN
F 3 "" H 8800 4100 50  0001 C CNN
	1    8800 4100
	1    0    0    -1  
$EndComp
Wire Wire Line
	9000 5150 9200 5150
Wire Wire Line
	9000 5150 9000 3750
Wire Wire Line
	9000 3750 8800 3750
Wire Wire Line
	8800 3400 8800 3350
Wire Wire Line
	8800 4350 9950 4350
$Comp
L Device:R R39
U 1 1 5AB8372C
P 8800 5550
F 0 "R39" V 8880 5550 50  0000 C CNN
F 1 "10k" V 8800 5550 50  0000 C CNN
F 2 "Resistors_SMD:R_0805_HandSoldering" V 8730 5550 50  0001 C CNN
F 3 "" H 8800 5550 50  0001 C CNN
	1    8800 5550
	1    0    0    -1  
$EndComp
$Comp
L Device:R R38
U 1 1 5AB83733
P 8800 5150
F 0 "R38" V 8880 5150 50  0000 C CNN
F 1 "200k" V 8800 5150 50  0000 C CNN
F 2 "Resistors_SMD:R_0805_HandSoldering" V 8730 5150 50  0001 C CNN
F 3 "" H 8800 5150 50  0001 C CNN
	1    8800 5150
	1    0    0    -1  
$EndComp
$Comp
L Main-rescue:GND #PWR055
U 1 1 5AB8373A
P 8800 5700
F 0 "#PWR055" H 8800 5450 50  0001 C CNN
F 1 "GND" H 8800 5550 50  0000 C CNN
F 2 "" H 8800 5700 50  0001 C CNN
F 3 "" H 8800 5700 50  0001 C CNN
	1    8800 5700
	1    0    0    -1  
$EndComp
Wire Wire Line
	8800 5300 8800 5350
Connection ~ 8800 5350
$Comp
L Device:R R24
U 1 1 5AB83743
P 5600 4850
F 0 "R24" V 5680 4850 50  0000 C CNN
F 1 "10k" V 5600 4850 50  0000 C CNN
F 2 "Resistors_SMD:R_0805_HandSoldering" V 5530 4850 50  0001 C CNN
F 3 "" H 5600 4850 50  0001 C CNN
	1    5600 4850
	0    1    1    0   
$EndComp
$Comp
L Device:R R29
U 1 1 5AB8374A
P 7050 1400
F 0 "R29" V 7130 1400 50  0000 C CNN
F 1 "10k" V 7050 1400 50  0000 C CNN
F 2 "Resistors_SMD:R_0805_HandSoldering" V 6980 1400 50  0001 C CNN
F 3 "" H 7050 1400 50  0001 C CNN
	1    7050 1400
	0    1    1    0   
$EndComp
Wire Wire Line
	6800 1400 6850 1400
Wire Wire Line
	8550 1400 7200 1400
$Comp
L Main-rescue:D D12
U 1 1 5AB83753
P 6850 1150
F 0 "D12" H 6850 1250 50  0000 C CNN
F 1 "D" H 6850 1050 50  0000 C CNN
F 2 "Diodes_SMD:D_SOD-523" H 6850 1150 50  0001 C CNN
F 3 "" H 6850 1150 50  0001 C CNN
	1    6850 1150
	0    1    1    0   
$EndComp
Wire Wire Line
	6600 900  6600 950 
Wire Wire Line
	6850 1000 6850 950 
Wire Wire Line
	6850 950  6600 950 
Connection ~ 6600 950 
Wire Wire Line
	6850 1300 6850 1400
Connection ~ 6850 1400
$Comp
L Main-rescue:D D13
U 1 1 5AB83760
P 6850 3100
F 0 "D13" H 6850 3200 50  0000 C CNN
F 1 "D" H 6850 3000 50  0000 C CNN
F 2 "Diodes_SMD:D_SOD-523" H 6850 3100 50  0001 C CNN
F 3 "" H 6850 3100 50  0001 C CNN
	1    6850 3100
	0    1    1    0   
$EndComp
Wire Wire Line
	6600 2850 6600 2900
Wire Wire Line
	6850 2950 6850 2900
Wire Wire Line
	6850 2900 6600 2900
Connection ~ 6600 2900
Wire Wire Line
	6850 3250 6850 3350
Connection ~ 6850 3350
$Comp
L Device:R R20
U 1 1 5AB8376D
P 4950 2400
F 0 "R20" V 5030 2400 50  0000 C CNN
F 1 "1k" V 4950 2400 50  0000 C CNN
F 2 "Resistors_SMD:R_0805_HandSoldering" V 4880 2400 50  0001 C CNN
F 3 "" H 4950 2400 50  0001 C CNN
	1    4950 2400
	0    1    1    0   
$EndComp
$Comp
L Device:R R23
U 1 1 5AB83774
P 4950 2500
F 0 "R23" V 5030 2500 50  0000 C CNN
F 1 "1k" V 4950 2500 50  0000 C CNN
F 2 "Resistors_SMD:R_0805_HandSoldering" V 4880 2500 50  0001 C CNN
F 3 "" H 4950 2500 50  0001 C CNN
	1    4950 2500
	0    1    1    0   
$EndComp
Wire Wire Line
	5250 2400 5100 2400
Wire Wire Line
	3800 2500 4350 2500
Wire Wire Line
	3800 2400 4050 2400
Wire Wire Line
	5250 2500 5100 2500
Wire Wire Line
	6350 4550 6450 4550
Connection ~ 6450 4550
Wire Wire Line
	6050 4550 5950 4550
Wire Wire Line
	5950 4550 5950 4600
Wire Wire Line
	4400 4850 4500 4850
$Comp
L Main-rescue:+5V #PWR056
U 1 1 5AB83785
P 750 850
F 0 "#PWR056" H 750 700 50  0001 C CNN
F 1 "+5V" H 750 990 50  0000 C CNN
F 2 "" H 750 850 50  0001 C CNN
F 3 "" H 750 850 50  0001 C CNN
	1    750  850 
	1    0    0    -1  
$EndComp
Wire Wire Line
	750  850  750  900 
Wire Wire Line
	1900 850  1900 900 
$Comp
L Main-rescue:+5VA #PWR057
U 1 1 5AB8378D
P 1900 850
F 0 "#PWR057" H 1900 700 50  0001 C CNN
F 1 "+5VA" H 1900 990 50  0000 C CNN
F 2 "" H 1900 850 50  0001 C CNN
F 3 "" H 1900 850 50  0001 C CNN
	1    1900 850 
	1    0    0    -1  
$EndComp
$Comp
L Main-rescue:+5VA #PWR058
U 1 1 5AB83793
P 6600 900
F 0 "#PWR058" H 6600 750 50  0001 C CNN
F 1 "+5VA" H 6600 1040 50  0000 C CNN
F 2 "" H 6600 900 50  0001 C CNN
F 3 "" H 6600 900 50  0001 C CNN
	1    6600 900 
	1    0    0    -1  
$EndComp
$Comp
L Main-rescue:+5VA #PWR059
U 1 1 5AB83799
P 6600 2850
F 0 "#PWR059" H 6600 2700 50  0001 C CNN
F 1 "+5VA" H 6600 2990 50  0000 C CNN
F 2 "" H 6600 2850 50  0001 C CNN
F 3 "" H 6600 2850 50  0001 C CNN
	1    6600 2850
	1    0    0    -1  
$EndComp
$Comp
L Main-rescue:+5VA #PWR060
U 1 1 5AB8379F
P 6450 4500
F 0 "#PWR060" H 6450 4350 50  0001 C CNN
F 1 "+5VA" H 6450 4640 50  0000 C CNN
F 2 "" H 6450 4500 50  0001 C CNN
F 3 "" H 6450 4500 50  0001 C CNN
	1    6450 4500
	1    0    0    -1  
$EndComp
$Comp
L Main-rescue:+5VA #PWR061
U 1 1 5AB837A5
P 9800 4650
F 0 "#PWR061" H 9800 4500 50  0001 C CNN
F 1 "+5VA" H 9800 4790 50  0000 C CNN
F 2 "" H 9800 4650 50  0001 C CNN
F 3 "" H 9800 4650 50  0001 C CNN
	1    9800 4650
	1    0    0    -1  
$EndComp
$Comp
L Main-rescue:+5VA #PWR062
U 1 1 5AB837AB
P 750 1750
F 0 "#PWR062" H 750 1600 50  0001 C CNN
F 1 "+5VA" H 750 1890 50  0000 C CNN
F 2 "" H 750 1750 50  0001 C CNN
F 3 "" H 750 1750 50  0001 C CNN
	1    750  1750
	1    0    0    -1  
$EndComp
$Comp
L Main-rescue:+3V3 #PWR063
U 1 1 5AB837B1
P 2950 850
F 0 "#PWR063" H 2950 700 50  0001 C CNN
F 1 "+3V3" H 2950 990 50  0000 C CNN
F 2 "" H 2950 850 50  0001 C CNN
F 3 "" H 2950 850 50  0001 C CNN
	1    2950 850 
	1    0    0    -1  
$EndComp
$Comp
L Main-rescue:+3.3VA #PWR064
U 1 1 5AB837B7
P 4100 850
F 0 "#PWR064" H 4100 700 50  0001 C CNN
F 1 "+3.3VA" H 4100 990 50  0000 C CNN
F 2 "" H 4100 850 50  0001 C CNN
F 3 "" H 4100 850 50  0001 C CNN
	1    4100 850 
	1    0    0    -1  
$EndComp
Wire Wire Line
	2950 850  2950 900 
Wire Wire Line
	4100 850  4100 900 
$Comp
L Main-rescue:+3.3VA #PWR065
U 1 1 5AB837BF
P 3200 1900
F 0 "#PWR065" H 3200 1750 50  0001 C CNN
F 1 "+3.3VA" H 3200 2040 50  0000 C CNN
F 2 "" H 3200 1900 50  0001 C CNN
F 3 "" H 3200 1900 50  0001 C CNN
	1    3200 1900
	1    0    0    -1  
$EndComp
$Comp
L Main-rescue:+3.3VA #PWR066
U 1 1 5AB837C5
P 3150 4300
F 0 "#PWR066" H 3150 4150 50  0001 C CNN
F 1 "+3.3VA" H 3150 4440 50  0000 C CNN
F 2 "" H 3150 4300 50  0001 C CNN
F 3 "" H 3150 4300 50  0001 C CNN
	1    3150 4300
	1    0    0    -1  
$EndComp
Wire Wire Line
	3050 4350 3150 4350
Connection ~ 3150 4350
Wire Wire Line
	2750 4350 2650 4350
Wire Wire Line
	2650 4350 2650 4400
Wire Wire Line
	2700 1950 2600 1950
Wire Wire Line
	2600 1950 2600 2000
Wire Wire Line
	3000 1950 3200 1950
Connection ~ 3200 1950
$Comp
L Main-rescue:D D11
U 1 1 5AB837D3
P 6000 5250
F 0 "D11" H 6000 5350 50  0000 C CNN
F 1 "D" H 6000 5150 50  0000 C CNN
F 2 "Diodes_SMD:D_SOD-523" H 6000 5250 50  0001 C CNN
F 3 "" H 6000 5250 50  0001 C CNN
	1    6000 5250
	0    1    1    0   
$EndComp
Wire Wire Line
	6000 5450 6000 5400
Connection ~ 6200 5450
$Comp
L Main-rescue:+5VA #PWR067
U 1 1 5AB837E3
P 6000 5100
F 0 "#PWR067" H 6000 4950 50  0001 C CNN
F 1 "+5VA" H 6000 5240 50  0000 C CNN
F 2 "" H 6000 5100 50  0001 C CNN
F 3 "" H 6000 5100 50  0001 C CNN
	1    6000 5100
	1    0    0    -1  
$EndComp
$Comp
L Main-rescue:D D14
U 1 1 5AB837F1
P 9200 4900
F 0 "D14" H 9200 5000 50  0000 C CNN
F 1 "D" H 9200 4800 50  0000 C CNN
F 2 "Diodes_SMD:D_SOD-523" H 9200 4900 50  0001 C CNN
F 3 "" H 9200 4900 50  0001 C CNN
	1    9200 4900
	0    1    1    0   
$EndComp
$Comp
L Main-rescue:D D15
U 1 1 5AB837F8
P 9500 4900
F 0 "D15" H 9500 5000 50  0000 C CNN
F 1 "D" H 9500 4800 50  0000 C CNN
F 2 "Diodes_SMD:D_SOD-523" H 9500 4900 50  0001 C CNN
F 3 "" H 9500 4900 50  0001 C CNN
	1    9500 4900
	0    1    1    0   
$EndComp
Wire Wire Line
	3850 4850 4100 4850
$Comp
L Device:C C18
U 1 1 5AB83800
P 750 1100
F 0 "C18" H 775 1200 50  0000 L CNN
F 1 "100n" H 775 1000 50  0000 L CNN
F 2 "Capacitors_SMD:C_0805_HandSoldering" H 788 950 50  0001 C CNN
F 3 "" H 750 1100 50  0001 C CNN
	1    750  1100
	1    0    0    -1  
$EndComp
$Comp
L Device:C C20
U 1 1 5AB83807
P 1900 1100
F 0 "C20" H 1925 1200 50  0000 L CNN
F 1 "100n" H 1925 1000 50  0000 L CNN
F 2 "Capacitors_SMD:C_0805_HandSoldering" H 1938 950 50  0001 C CNN
F 3 "" H 1900 1100 50  0001 C CNN
	1    1900 1100
	1    0    0    -1  
$EndComp
$Comp
L Device:L L1
U 1 1 5AB8380E
P 1100 900
F 0 "L1" V 1050 900 50  0000 C CNN
F 1 "3.3u" V 1175 900 50  0000 C CNN
F 2 "Inductors_SMD:L_0805_HandSoldering" H 1100 900 50  0001 C CNN
F 3 "" H 1100 900 50  0001 C CNN
	1    1100 900 
	0    1    1    0   
$EndComp
$Comp
L Device:R R18
U 1 1 5AB83815
P 1550 900
F 0 "R18" V 1630 900 50  0000 C CNN
F 1 "10" V 1550 900 50  0000 C CNN
F 2 "Resistors_SMD:R_0805_HandSoldering" V 1480 900 50  0001 C CNN
F 3 "" H 1550 900 50  0001 C CNN
	1    1550 900 
	0    1    1    0   
$EndComp
Wire Wire Line
	750  900  950  900 
Connection ~ 750  900 
Wire Wire Line
	1250 900  1400 900 
Connection ~ 1900 900 
$Comp
L Main-rescue:GND #PWR068
U 1 1 5AB83821
P 750 1250
F 0 "#PWR068" H 750 1000 50  0001 C CNN
F 1 "GND" H 750 1100 50  0000 C CNN
F 2 "" H 750 1250 50  0001 C CNN
F 3 "" H 750 1250 50  0001 C CNN
	1    750  1250
	1    0    0    -1  
$EndComp
$Comp
L Main-rescue:GND #PWR069
U 1 1 5AB83827
P 1900 1250
F 0 "#PWR069" H 1900 1000 50  0001 C CNN
F 1 "GND" H 1900 1100 50  0000 C CNN
F 2 "" H 1900 1250 50  0001 C CNN
F 3 "" H 1900 1250 50  0001 C CNN
	1    1900 1250
	1    0    0    -1  
$EndComp
$Comp
L Device:C C21
U 1 1 5AB8382E
P 2950 1100
F 0 "C21" H 2975 1200 50  0000 L CNN
F 1 "100n" H 2975 1000 50  0000 L CNN
F 2 "Capacitors_SMD:C_0805_HandSoldering" H 2988 950 50  0001 C CNN
F 3 "" H 2950 1100 50  0001 C CNN
	1    2950 1100
	1    0    0    -1  
$EndComp
$Comp
L Device:C C24
U 1 1 5AB83835
P 4100 1100
F 0 "C24" H 4125 1200 50  0000 L CNN
F 1 "100n" H 4125 1000 50  0000 L CNN
F 2 "Capacitors_SMD:C_0805_HandSoldering" H 4138 950 50  0001 C CNN
F 3 "" H 4100 1100 50  0001 C CNN
	1    4100 1100
	1    0    0    -1  
$EndComp
$Comp
L Device:L L2
U 1 1 5AB8383C
P 3350 900
F 0 "L2" V 3300 900 50  0000 C CNN
F 1 "3.3u" V 3425 900 50  0000 C CNN
F 2 "Inductors_SMD:L_0805_HandSoldering" H 3350 900 50  0001 C CNN
F 3 "" H 3350 900 50  0001 C CNN
	1    3350 900 
	0    1    1    0   
$EndComp
$Comp
L Device:R R19
U 1 1 5AB83843
P 3750 900
F 0 "R19" V 3830 900 50  0000 C CNN
F 1 "10" V 3750 900 50  0000 C CNN
F 2 "Resistors_SMD:R_0805_HandSoldering" V 3680 900 50  0001 C CNN
F 3 "" H 3750 900 50  0001 C CNN
	1    3750 900 
	0    1    1    0   
$EndComp
$Comp
L Main-rescue:GND #PWR070
U 1 1 5AB8384A
P 2950 1250
F 0 "#PWR070" H 2950 1000 50  0001 C CNN
F 1 "GND" H 2950 1100 50  0000 C CNN
F 2 "" H 2950 1250 50  0001 C CNN
F 3 "" H 2950 1250 50  0001 C CNN
	1    2950 1250
	1    0    0    -1  
$EndComp
$Comp
L Main-rescue:GND #PWR071
U 1 1 5AB83850
P 4100 1250
F 0 "#PWR071" H 4100 1000 50  0001 C CNN
F 1 "GND" H 4100 1100 50  0000 C CNN
F 2 "" H 4100 1250 50  0001 C CNN
F 3 "" H 4100 1250 50  0001 C CNN
	1    4100 1250
	1    0    0    -1  
$EndComp
Wire Wire Line
	2950 900  3200 900 
Connection ~ 2950 900 
Wire Wire Line
	3500 900  3600 900 
Connection ~ 4100 900 
Wire Wire Line
	1050 2250 1050 2200
Connection ~ 1050 2200
Wire Wire Line
	750  2550 750  2600
Wire Wire Line
	750  2600 1050 2600
Wire Wire Line
	1050 2600 1050 2550
Connection ~ 750  2600
$Comp
L Main-rescue:D_TVS D16
U 1 1 5AB83898
P 9950 3850
F 0 "D16" H 9950 3950 50  0000 C CNN
F 1 "D_TVS" H 9950 3750 50  0000 C CNN
F 2 "Diodes_SMD:D_SMA_Handsoldering" H 9950 3850 50  0001 C CNN
F 3 "" H 9950 3850 50  0001 C CNN
	1    9950 3850
	0    1    1    0   
$EndComp
Wire Wire Line
	8550 5450 8550 1400
Wire Wire Line
	8800 5000 8800 4350
Connection ~ 9950 4350
Wire Wire Line
	9200 5050 9200 5150
Connection ~ 9200 5150
Wire Wire Line
	9500 5050 9500 5350
Connection ~ 9500 5350
Wire Wire Line
	9200 4750 9200 4700
Wire Wire Line
	9200 4700 9500 4700
Wire Wire Line
	9800 4650 9800 4700
Wire Wire Line
	9500 4750 9500 4700
Connection ~ 9500 4700
Connection ~ 9800 4700
Text HLabel 2000 3700 0    60   Input ~ 0
SPI_MOSI
Text HLabel 2000 3800 0    60   Output ~ 0
SPI_MISO
Text HLabel 2000 3900 0    60   Input ~ 0
SPI_SCLK
Text HLabel 2000 4850 0    60   Input ~ 0
SPI_CS_DAC
Text HLabel 2000 2700 0    60   Input ~ 0
SPI_CS_ADC
Wire Wire Line
	2600 2600 2200 2600
Wire Wire Line
	2200 2600 2200 3700
Wire Wire Line
	2200 5050 2750 5050
Wire Wire Line
	2600 2500 2300 2500
Wire Wire Line
	2300 2500 2300 3800
Wire Wire Line
	2600 2400 2400 2400
Wire Wire Line
	2400 2400 2400 3900
Wire Wire Line
	2400 4950 2750 4950
Wire Wire Line
	2000 3700 2200 3700
Connection ~ 2200 3700
Wire Wire Line
	2300 3800 2000 3800
Wire Wire Line
	2000 3900 2400 3900
Connection ~ 2400 3900
Wire Wire Line
	2000 4850 2750 4850
Wire Wire Line
	2000 2700 2600 2700
Wire Wire Line
	7000 5350 7000 5450
Connection ~ 7000 5450
Wire Wire Line
	7000 5050 7000 4950
Connection ~ 7000 4950
$Comp
L Main-rescue:PWR_FLAG #FLG072
U 1 1 5AB2BC2F
P 2050 900
F 0 "#FLG072" H 2050 975 50  0001 C CNN
F 1 "PWR_FLAG" H 2050 1050 50  0000 C CNN
F 2 "" H 2050 900 50  0001 C CNN
F 3 "" H 2050 900 50  0001 C CNN
	1    2050 900 
	0    1    1    0   
$EndComp
$Comp
L Main-rescue:PWR_FLAG #FLG073
U 1 1 5AB2BE7A
P 4250 900
F 0 "#FLG073" H 4250 975 50  0001 C CNN
F 1 "PWR_FLAG" H 4250 1050 50  0000 C CNN
F 2 "" H 4250 900 50  0001 C CNN
F 3 "" H 4250 900 50  0001 C CNN
	1    4250 900 
	0    1    1    0   
$EndComp
Wire Wire Line
	1700 900  1900 900 
Wire Wire Line
	3900 900  4100 900 
$Comp
L Main-rescue:PWR_FLAG #FLG074
U 1 1 5AB2DA71
P 1150 2150
F 0 "#FLG074" H 1150 2225 50  0001 C CNN
F 1 "PWR_FLAG" H 1150 2300 50  0000 C CNN
F 2 "" H 1150 2150 50  0001 C CNN
F 3 "" H 1150 2150 50  0001 C CNN
	1    1150 2150
	1    0    0    -1  
$EndComp
Wire Wire Line
	1150 2200 1150 2150
Connection ~ 1150 2200
Wire Wire Line
	3800 2600 4650 2600
$Comp
L Main-rescue:GND #PWR075
U 1 1 5AB347E4
P 3800 2700
F 0 "#PWR075" H 3800 2450 50  0001 C CNN
F 1 "GND" H 3800 2550 50  0000 C CNN
F 2 "" H 3800 2700 50  0001 C CNN
F 3 "" H 3800 2700 50  0001 C CNN
	1    3800 2700
	0    -1   -1   0   
$EndComp
$Comp
L Device:R R42
U 1 1 5AB357DE
P 4950 2600
F 0 "R42" V 5030 2600 50  0000 C CNN
F 1 "1k" V 4950 2600 50  0000 C CNN
F 2 "Resistors_SMD:R_0805_HandSoldering" V 4880 2600 50  0001 C CNN
F 3 "" H 4950 2600 50  0001 C CNN
	1    4950 2600
	0    1    1    0   
$EndComp
Wire Wire Line
	5100 2600 5150 2600
Wire Wire Line
	5150 2600 5150 3800
$Comp
L Device:R R41
U 1 1 5AB3637E
P 4850 3600
F 0 "R41" V 4930 3600 50  0000 C CNN
F 1 "R" V 4850 3600 50  0000 C CNN
F 2 "Resistors_SMD:R_0805_HandSoldering" V 4780 3600 50  0001 C CNN
F 3 "" H 4850 3600 50  0001 C CNN
	1    4850 3600
	1    0    0    -1  
$EndComp
$Comp
L Device:C C31
U 1 1 5AB36462
P 5150 4050
F 0 "C31" H 5175 4150 50  0000 L CNN
F 1 "C" H 5175 3950 50  0000 L CNN
F 2 "Capacitors_SMD:C_0805_HandSoldering" H 5188 3900 50  0001 C CNN
F 3 "" H 5150 4050 50  0001 C CNN
	1    5150 4050
	1    0    0    -1  
$EndComp
Wire Wire Line
	4850 3750 4850 3800
Connection ~ 4850 3800
$Comp
L Main-rescue:GND #PWR076
U 1 1 5AB36DB9
P 4850 4350
F 0 "#PWR076" H 4850 4100 50  0001 C CNN
F 1 "GND" H 4850 4200 50  0000 C CNN
F 2 "" H 4850 4350 50  0001 C CNN
F 3 "" H 4850 4350 50  0001 C CNN
	1    4850 4350
	1    0    0    -1  
$EndComp
Wire Wire Line
	4850 4250 4850 4300
Wire Wire Line
	4850 4300 5150 4300
Wire Wire Line
	5150 4300 5150 4200
Connection ~ 4850 4300
$Comp
L Main-rescue:+3.3VA #PWR077
U 1 1 5AB382FC
P 4850 3450
F 0 "#PWR077" H 4850 3300 50  0001 C CNN
F 1 "+3.3VA" H 4850 3590 50  0000 C CNN
F 2 "" H 4850 3450 50  0001 C CNN
F 3 "" H 4850 3450 50  0001 C CNN
	1    4850 3450
	1    0    0    -1  
$EndComp
Wire Wire Line
	4850 3800 5150 3800
Connection ~ 5150 3800
$Comp
L Main-rescue:GND #PWR078
U 1 1 5AB3CE05
P 2750 4750
F 0 "#PWR078" H 2750 4500 50  0001 C CNN
F 1 "GND" H 2750 4600 50  0000 C CNN
F 2 "" H 2750 4750 50  0001 C CNN
F 3 "" H 2750 4750 50  0001 C CNN
	1    2750 4750
	0    1    1    0   
$EndComp
Text Notes 9000 5850 0    60   ~ 0
https://electronics.stackexchange.com/a/99517/77285
$Comp
L Device:R R43
U 1 1 5AB4A532
P 7200 2800
F 0 "R43" V 7280 2800 50  0000 C CNN
F 1 "12k" V 7200 2800 50  0000 C CNN
F 2 "Resistors_SMD:R_0805_HandSoldering" V 7130 2800 50  0001 C CNN
F 3 "" H 7200 2800 50  0001 C CNN
F 4 "precise" V 7200 2800 60  0001 C CNN "Extra"
	1    7200 2800
	1    0    0    -1  
$EndComp
Wire Wire Line
	7200 2650 7200 2600
Wire Wire Line
	7200 2600 7800 2600
Connection ~ 7800 2600
Wire Wire Line
	5750 4850 6250 4850
Connection ~ 4050 2400
Connection ~ 4350 2500
Connection ~ 4650 2600
$Comp
L Main-rescue:GND #PWR079
U 1 1 5AB8388E
P 4350 3200
F 0 "#PWR079" H 4350 2950 50  0001 C CNN
F 1 "GND" H 4350 3050 50  0000 C CNN
F 2 "" H 4350 3200 50  0001 C CNN
F 3 "" H 4350 3200 50  0001 C CNN
	1    4350 3200
	1    0    0    -1  
$EndComp
Wire Wire Line
	4650 3150 4650 3100
Wire Wire Line
	4350 3100 4350 3150
Connection ~ 4350 3150
Wire Wire Line
	4050 3150 4350 3150
Wire Wire Line
	4050 3100 4050 3150
$Comp
L Main-rescue:D D7
U 1 1 5AB83870
P 4050 2950
F 0 "D7" H 4050 3050 50  0000 C CNN
F 1 "D" H 4050 2850 50  0000 C CNN
F 2 "Diodes_SMD:D_SOD-523" H 4050 2950 50  0001 C CNN
F 3 "" H 4050 2950 50  0001 C CNN
	1    4050 2950
	0    1    1    0   
$EndComp
$Comp
L Main-rescue:D D9
U 1 1 5AB83877
P 4350 2950
F 0 "D9" H 4350 3050 50  0000 C CNN
F 1 "D" H 4350 2850 50  0000 C CNN
F 2 "Diodes_SMD:D_SOD-523" H 4350 2950 50  0001 C CNN
F 3 "" H 4350 2950 50  0001 C CNN
	1    4350 2950
	0    1    1    0   
$EndComp
$Comp
L Main-rescue:D D18
U 1 1 5AB33660
P 4650 2950
F 0 "D18" H 4650 3050 50  0000 C CNN
F 1 "D" H 4650 2850 50  0000 C CNN
F 2 "Diodes_SMD:D_SOD-523" H 4650 2950 50  0001 C CNN
F 3 "" H 4650 2950 50  0001 C CNN
	1    4650 2950
	0    1    1    0   
$EndComp
Wire Wire Line
	4650 2300 4650 2600
Wire Wire Line
	4350 2300 4350 2500
Wire Wire Line
	4050 2300 4050 2400
$Comp
L Main-rescue:D D6
U 1 1 5AB83862
P 4050 2150
F 0 "D6" H 4050 2250 50  0000 C CNN
F 1 "D" H 4050 2050 50  0000 C CNN
F 2 "Diodes_SMD:D_SOD-523" H 4050 2150 50  0001 C CNN
F 3 "" H 4050 2150 50  0001 C CNN
	1    4050 2150
	0    1    1    0   
$EndComp
$Comp
L Main-rescue:D D8
U 1 1 5AB83869
P 4350 2150
F 0 "D8" H 4350 2250 50  0000 C CNN
F 1 "D" H 4350 2050 50  0000 C CNN
F 2 "Diodes_SMD:D_SOD-523" H 4350 2150 50  0001 C CNN
F 3 "" H 4350 2150 50  0001 C CNN
	1    4350 2150
	0    1    1    0   
$EndComp
$Comp
L Main-rescue:D D17
U 1 1 5AB331F9
P 4650 2150
F 0 "D17" H 4650 2250 50  0000 C CNN
F 1 "D" H 4650 2050 50  0000 C CNN
F 2 "Diodes_SMD:D_SOD-523" H 4650 2150 50  0001 C CNN
F 3 "" H 4650 2150 50  0001 C CNN
	1    4650 2150
	0    1    1    0   
$EndComp
Wire Wire Line
	4650 1950 4650 2000
Wire Wire Line
	4050 2000 4050 1950
Wire Wire Line
	4050 1950 4350 1950
Connection ~ 4350 1950
Wire Wire Line
	4350 1900 4350 1950
$Comp
L Main-rescue:+3.3VA #PWR080
U 1 1 5AB83888
P 4350 1900
F 0 "#PWR080" H 4350 1750 50  0001 C CNN
F 1 "+3.3VA" H 4350 2040 50  0000 C CNN
F 2 "" H 4350 1900 50  0001 C CNN
F 3 "" H 4350 1900 50  0001 C CNN
	1    4350 1900
	1    0    0    -1  
$EndComp
Wire Wire Line
	5200 4950 5200 4850
Connection ~ 5200 4850
Wire Wire Line
	4500 4950 4500 4850
Connection ~ 4500 4850
$Comp
L Main-rescue:Conn_01x02 J5
U 1 1 5AE9E917
P 10850 3800
F 0 "J5" H 10850 3900 50  0000 C CNN
F 1 "CON_LOAD" H 10850 3600 50  0000 C CNN
F 2 "footprints:TerminalBlock_Phoenix_MKDSN1.5-5.08-2pol" H 10850 3800 50  0001 C CNN
F 3 "" H 10850 3800 50  0001 C CNN
	1    10850 3800
	1    0    0    -1  
$EndComp
Wire Wire Line
	10550 3800 10650 3800
Wire Wire Line
	10550 3900 10650 3900
Wire Wire Line
	7450 4950 7500 4950
Wire Wire Line
	7800 5350 7800 5450
Wire Wire Line
	7800 5450 8550 5450
Wire Wire Line
	7800 5450 7800 5550
Wire Wire Line
	7200 3350 7200 3400
Wire Wire Line
	6100 3450 6200 3450
Wire Wire Line
	750  2200 750  2250
Wire Wire Line
	6100 1500 6200 1500
Wire Wire Line
	6900 2150 6900 2200
Wire Wire Line
	9950 3350 10550 3350
Wire Wire Line
	10550 3350 10550 3800
Wire Wire Line
	10550 4350 10550 5050
Wire Wire Line
	9050 2300 10550 2300
Wire Wire Line
	7800 5950 7800 6000
Wire Wire Line
	5500 3450 5650 3450
Wire Wire Line
	5500 1500 5650 1500
Wire Wire Line
	8800 3750 8800 3800
Wire Wire Line
	8800 5350 8800 5400
Wire Wire Line
	6600 950  6600 1200
Wire Wire Line
	6850 1400 6900 1400
Wire Wire Line
	6600 2900 6600 3150
Wire Wire Line
	6850 3350 7200 3350
Wire Wire Line
	6450 4550 6450 4650
Wire Wire Line
	3150 4350 3150 4450
Wire Wire Line
	3200 1950 3200 2100
Wire Wire Line
	6200 5450 7000 5450
Wire Wire Line
	750  900  750  950 
Wire Wire Line
	1900 900  1900 950 
Wire Wire Line
	1900 900  2050 900 
Wire Wire Line
	2950 900  2950 950 
Wire Wire Line
	4100 900  4100 950 
Wire Wire Line
	4100 900  4250 900 
Wire Wire Line
	1050 2200 1150 2200
Wire Wire Line
	750  2600 750  2650
Wire Wire Line
	9950 4350 10550 4350
Wire Wire Line
	9200 5150 9600 5150
Wire Wire Line
	9500 5350 9600 5350
Wire Wire Line
	9500 4700 9800 4700
Wire Wire Line
	9800 4700 9800 4950
Wire Wire Line
	2200 3700 2200 5050
Wire Wire Line
	2400 3900 2400 4950
Wire Wire Line
	7000 5450 7200 5450
Wire Wire Line
	7000 4950 7050 4950
Wire Wire Line
	1150 2200 1250 2200
Wire Wire Line
	4850 3800 4850 3850
Wire Wire Line
	4850 4300 4850 4350
Wire Wire Line
	5150 3800 5150 3900
Wire Wire Line
	7800 2600 7800 4750
Wire Wire Line
	4050 2400 4800 2400
Wire Wire Line
	4050 2400 4050 2800
Wire Wire Line
	4350 2500 4800 2500
Wire Wire Line
	4350 2500 4350 2800
Wire Wire Line
	4650 2600 4800 2600
Wire Wire Line
	4650 2600 4650 2800
Wire Wire Line
	4350 3150 4350 3200
Wire Wire Line
	4350 3150 4650 3150
Wire Wire Line
	4350 1950 4650 1950
Wire Wire Line
	4350 1950 4350 2000
Wire Wire Line
	5200 4850 5450 4850
Wire Wire Line
	4500 4850 5200 4850
$EndSCHEMATC
