EESchema Schematic File Version 4
LIBS:Main-cache
EELAYER 26 0
EELAYER END
$Descr A4 11693 8268
encoding utf-8
Sheet 3 4
Title ""
Date ""
Rev ""
Comp ""
Comment1 ""
Comment2 ""
Comment3 ""
Comment4 ""
$EndDescr
$Comp
L Main-rescue:GND #PWR08
U 1 1 5AB6D010
P 5500 4100
F 0 "#PWR08" H 5500 3850 50  0001 C CNN
F 1 "GND" H 5500 3950 50  0000 C CNN
F 2 "" H 5500 4100 50  0001 C CNN
F 3 "" H 5500 4100 50  0001 C CNN
	1    5500 4100
	1    0    0    -1  
$EndComp
$Comp
L Device:C C16
U 1 1 5AB6D016
P 5200 1650
F 0 "C16" H 5225 1750 50  0000 L CNN
F 1 "100n" H 5225 1550 50  0000 L CNN
F 2 "Capacitors_SMD:C_0805_HandSoldering" H 5238 1500 50  0001 C CNN
F 3 "" H 5200 1650 50  0001 C CNN
	1    5200 1650
	0    -1   -1   0   
$EndComp
$Comp
L Main-rescue:Conn_01x05 J4
U 1 1 5AB6D0F1
P 700 1450
F 0 "J4" H 700 1650 50  0000 C CNN
F 1 "CON_PROG" H 700 1250 50  0000 C CNN
F 2 "Pin_Headers:Pin_Header_Straight_1x05_Pitch2.54mm" H 700 1450 50  0001 C CNN
F 3 "" H 700 1450 50  0001 C CNN
	1    700  1450
	-1   0    0    -1  
$EndComp
Text HLabel 10500 2900 2    60   Output ~ 0
SPI_MOSI
Text HLabel 10500 2800 2    60   Input ~ 0
SPI_MISO
Text HLabel 10500 2700 2    60   Output ~ 0
SPI_SCLK
Text HLabel 10500 3100 2    60   Output ~ 0
SPI_CS_DAC
Text HLabel 10500 3000 2    60   Output ~ 0
SPI_CS_ADC
Text Label 9600 3300 0    60   ~ 0
SPI_CS_LCD
$Comp
L Device:R R6
U 1 1 5AB13D86
P 5050 5950
F 0 "R6" V 5130 5950 50  0000 C CNN
F 1 "1k" V 5050 5950 50  0000 C CNN
F 2 "Resistors_SMD:R_0805_HandSoldering" V 4980 5950 50  0001 C CNN
F 3 "" H 5050 5950 50  0001 C CNN
	1    5050 5950
	-1   0    0    -1  
$EndComp
$Comp
L Device:R R10
U 1 1 5AB13E91
P 4800 6200
F 0 "R10" V 4880 6200 50  0000 C CNN
F 1 "1k" V 4800 6200 50  0000 C CNN
F 2 "Resistors_SMD:R_0805_HandSoldering" V 4730 6200 50  0001 C CNN
F 3 "" H 4800 6200 50  0001 C CNN
	1    4800 6200
	0    -1   1    0   
$EndComp
$Comp
L Device:C C11
U 1 1 5AB13EE1
P 4550 6450
F 0 "C11" H 4575 6550 50  0000 L CNN
F 1 "100n" H 4575 6350 50  0000 L CNN
F 2 "Capacitors_SMD:C_0805_HandSoldering" H 4588 6300 50  0001 C CNN
F 3 "" H 4550 6450 50  0001 C CNN
	1    4550 6450
	-1   0    0    -1  
$EndComp
$Comp
L Device:R R8
U 1 1 5AB14354
P 2300 4950
F 0 "R8" V 2380 4950 50  0000 C CNN
F 1 "1k" V 2300 4950 50  0000 C CNN
F 2 "Resistors_SMD:R_0805_HandSoldering" V 2230 4950 50  0001 C CNN
F 3 "" H 2300 4950 50  0001 C CNN
	1    2300 4950
	-1   0    0    -1  
$EndComp
$Comp
L Device:R R12
U 1 1 5AB1435A
P 2050 5200
F 0 "R12" V 2130 5200 50  0000 C CNN
F 1 "1k" V 2050 5200 50  0000 C CNN
F 2 "Resistors_SMD:R_0805_HandSoldering" V 1980 5200 50  0001 C CNN
F 3 "" H 2050 5200 50  0001 C CNN
	1    2050 5200
	0    -1   1    0   
$EndComp
$Comp
L Device:C C13
U 1 1 5AB14360
P 1800 5450
F 0 "C13" H 1825 5550 50  0000 L CNN
F 1 "100n" H 1825 5350 50  0000 L CNN
F 2 "Capacitors_SMD:C_0805_HandSoldering" H 1838 5300 50  0001 C CNN
F 3 "" H 1800 5450 50  0001 C CNN
	1    1800 5450
	-1   0    0    -1  
$EndComp
$Comp
L Main-rescue:+3V3 #PWR09
U 1 1 5AB15234
P 5050 5800
F 0 "#PWR09" H 5050 5650 50  0001 C CNN
F 1 "+3V3" H 5050 5940 50  0000 C CNN
F 2 "" H 5050 5800 50  0001 C CNN
F 3 "" H 5050 5800 50  0001 C CNN
	1    5050 5800
	-1   0    0    -1  
$EndComp
$Comp
L Main-rescue:+3V3 #PWR010
U 1 1 5AB1533B
P 2300 4800
F 0 "#PWR010" H 2300 4650 50  0001 C CNN
F 1 "+3V3" H 2300 4940 50  0000 C CNN
F 2 "" H 2300 4800 50  0001 C CNN
F 3 "" H 2300 4800 50  0001 C CNN
	1    2300 4800
	-1   0    0    -1  
$EndComp
$Comp
L Main-rescue:GND #PWR011
U 1 1 5AB1542D
P 4550 6600
F 0 "#PWR011" H 4550 6350 50  0001 C CNN
F 1 "GND" H 4550 6450 50  0000 C CNN
F 2 "" H 4550 6600 50  0001 C CNN
F 3 "" H 4550 6600 50  0001 C CNN
	1    4550 6600
	-1   0    0    -1  
$EndComp
$Comp
L Main-rescue:GND #PWR012
U 1 1 5AB15477
P 1800 5600
F 0 "#PWR012" H 1800 5350 50  0001 C CNN
F 1 "GND" H 1800 5450 50  0000 C CNN
F 2 "" H 1800 5600 50  0001 C CNN
F 3 "" H 1800 5600 50  0001 C CNN
	1    1800 5600
	-1   0    0    -1  
$EndComp
$Comp
L Device:R R7
U 1 1 5AB15F3A
P 2800 5950
F 0 "R7" V 2880 5950 50  0000 C CNN
F 1 "1k" V 2800 5950 50  0000 C CNN
F 2 "Resistors_SMD:R_0805_HandSoldering" V 2730 5950 50  0001 C CNN
F 3 "" H 2800 5950 50  0001 C CNN
	1    2800 5950
	-1   0    0    -1  
$EndComp
$Comp
L Device:R R11
U 1 1 5AB15F40
P 2550 6200
F 0 "R11" V 2630 6200 50  0000 C CNN
F 1 "1k" V 2550 6200 50  0000 C CNN
F 2 "Resistors_SMD:R_0805_HandSoldering" V 2480 6200 50  0001 C CNN
F 3 "" H 2550 6200 50  0001 C CNN
	1    2550 6200
	0    -1   1    0   
$EndComp
$Comp
L Device:C C12
U 1 1 5AB15F46
P 2300 6450
F 0 "C12" H 2325 6550 50  0000 L CNN
F 1 "100n" H 2325 6350 50  0000 L CNN
F 2 "Capacitors_SMD:C_0805_HandSoldering" H 2338 6300 50  0001 C CNN
F 3 "" H 2300 6450 50  0001 C CNN
	1    2300 6450
	-1   0    0    -1  
$EndComp
$Comp
L Main-rescue:+3V3 #PWR013
U 1 1 5AB15F50
P 2800 5800
F 0 "#PWR013" H 2800 5650 50  0001 C CNN
F 1 "+3V3" H 2800 5940 50  0000 C CNN
F 2 "" H 2800 5800 50  0001 C CNN
F 3 "" H 2800 5800 50  0001 C CNN
	1    2800 5800
	-1   0    0    -1  
$EndComp
$Comp
L Main-rescue:GND #PWR014
U 1 1 5AB15F56
P 2300 6600
F 0 "#PWR014" H 2300 6350 50  0001 C CNN
F 1 "GND" H 2300 6450 50  0000 C CNN
F 2 "" H 2300 6600 50  0001 C CNN
F 3 "" H 2300 6600 50  0001 C CNN
	1    2300 6600
	-1   0    0    -1  
$EndComp
$Comp
L Main-rescue:GND #PWR015
U 1 1 5AB303B2
P 10600 2000
F 0 "#PWR015" H 10600 1750 50  0001 C CNN
F 1 "GND" H 10600 1850 50  0000 C CNN
F 2 "" H 10600 2000 50  0001 C CNN
F 3 "" H 10600 2000 50  0001 C CNN
	1    10600 2000
	1    0    0    -1  
$EndComp
$Comp
L Main-rescue:+3V3 #PWR016
U 1 1 5AB30810
P 10400 1500
F 0 "#PWR016" H 10400 1350 50  0001 C CNN
F 1 "+3V3" H 10400 1640 50  0000 C CNN
F 2 "" H 10400 1500 50  0001 C CNN
F 3 "" H 10400 1500 50  0001 C CNN
	1    10400 1500
	1    0    0    -1  
$EndComp
$Comp
L Main-rescue:+5V #PWR017
U 1 1 5AB3093F
P 10600 1400
F 0 "#PWR017" H 10600 1250 50  0001 C CNN
F 1 "+5V" H 10600 1540 50  0000 C CNN
F 2 "" H 10600 1400 50  0001 C CNN
F 3 "" H 10600 1400 50  0001 C CNN
	1    10600 1400
	1    0    0    -1  
$EndComp
$Comp
L Main-rescue:Conn_01x05 J7
U 1 1 5AB32019
P 10900 1700
F 0 "J7" H 10900 2000 50  0000 C CNN
F 1 "CON_SERIAL" H 10900 1400 50  0000 C CNN
F 2 "Pin_Headers:Pin_Header_Straight_1x05_Pitch2.54mm" H 10900 1700 50  0001 C CNN
F 3 "" H 10900 1700 50  0001 C CNN
	1    10900 1700
	1    0    0    -1  
$EndComp
$Comp
L Main-rescue:Conn_01x10 J2
U 1 1 5ABAACC0
P 10500 5000
F 0 "J2" H 10500 5500 50  0000 C CNN
F 1 "CON_FRONT_BOARD" H 10500 4400 50  0000 C CNN
F 2 "Pin_Headers:Pin_Header_Straight_2x05_Pitch2.54mm" H 10500 5000 50  0001 C CNN
F 3 "" H 10500 5000 50  0001 C CNN
	1    10500 5000
	1    0    0    -1  
$EndComp
$Comp
L Main-rescue:+3V3 #PWR018
U 1 1 5ABAB088
P 10150 4600
F 0 "#PWR018" H 10150 4450 50  0001 C CNN
F 1 "+3V3" H 10150 4740 50  0000 C CNN
F 2 "" H 10150 4600 50  0001 C CNN
F 3 "" H 10150 4600 50  0001 C CNN
	1    10150 4600
	0    -1   -1   0   
$EndComp
$Comp
L Main-rescue:GND #PWR019
U 1 1 5ABAB246
P 10150 4700
F 0 "#PWR019" H 10150 4450 50  0001 C CNN
F 1 "GND" H 10150 4550 50  0000 C CNN
F 2 "" H 10150 4700 50  0001 C CNN
F 3 "" H 10150 4700 50  0001 C CNN
	1    10150 4700
	0    1    1    0   
$EndComp
$Comp
L Main-rescue:Conn_01x01 J3
U 1 1 5AC4FA57
P 2000 3600
F 0 "J3" H 2000 3700 50  0000 C CNN
F 1 "CON_FANCTRL" H 2000 3500 50  0000 C CNN
F 2 "Pin_Headers:Pin_Header_Straight_1x01_Pitch2.54mm" H 2000 3600 50  0001 C CNN
F 3 "" H 2000 3600 50  0001 C CNN
	1    2000 3600
	-1   0    0    1   
$EndComp
$Comp
L Main-rescue:STM32L031K6Tx U3
U 1 1 5AE0769A
P 5600 3000
F 0 "U3" H 2400 4125 50  0000 L BNN
F 1 "STM32L031K6Tx" H 8800 4125 50  0000 R BNN
F 2 "Housings_QFP:LQFP-32_7x7mm_Pitch0.8mm" H 8800 4075 50  0001 R TNN
F 3 "" H 5600 3000 50  0001 C CNN
	1    5600 3000
	1    0    0    -1  
$EndComp
$Comp
L Device:L L3
U 1 1 5AE0D262
P 6600 1300
F 0 "L3" V 6550 1300 50  0000 C CNN
F 1 "3.3u" V 6675 1300 50  0000 C CNN
F 2 "Inductors_SMD:L_0805_HandSoldering" H 6600 1300 50  0001 C CNN
F 3 "" H 6600 1300 50  0001 C CNN
	1    6600 1300
	0    -1   -1   0   
$EndComp
$Comp
L Device:C C15
U 1 1 5AE0D32B
P 5950 1500
F 0 "C15" H 5975 1600 50  0000 L CNN
F 1 "100n" H 5975 1400 50  0000 L CNN
F 2 "Capacitors_SMD:C_0805_HandSoldering" H 5988 1350 50  0001 C CNN
F 3 "" H 5950 1500 50  0001 C CNN
	1    5950 1500
	-1   0    0    1   
$EndComp
$Comp
L Main-rescue:GND #PWR020
U 1 1 5AE0D595
P 5950 1650
F 0 "#PWR020" H 5950 1400 50  0001 C CNN
F 1 "GND" H 5950 1500 50  0000 C CNN
F 2 "" H 5950 1650 50  0001 C CNN
F 3 "" H 5950 1650 50  0001 C CNN
	1    5950 1650
	1    0    0    -1  
$EndComp
Wire Wire Line
	8900 2800 10400 2800
Wire Wire Line
	8900 3000 10500 3000
Wire Wire Line
	1150 3100 1150 5200
Wire Wire Line
	8900 3200 9600 3200
Wire Wire Line
	8900 2900 9300 2900
Wire Wire Line
	8900 2700 9400 2700
Wire Wire Line
	8900 3100 10500 3100
Connection ~ 9400 2700
Connection ~ 9300 2900
Wire Wire Line
	5050 6100 5050 6200
Wire Wire Line
	4950 6200 5050 6200
Wire Wire Line
	3700 6200 4550 6200
Wire Wire Line
	4550 6200 4550 6300
Wire Wire Line
	2300 5100 2300 5200
Wire Wire Line
	1150 5200 1800 5200
Wire Wire Line
	1800 5200 1800 5300
Wire Wire Line
	2800 6100 2800 6200
Wire Wire Line
	2700 6200 2800 6200
Wire Wire Line
	1050 6200 2300 6200
Wire Wire Line
	2300 6200 2300 6300
Connection ~ 4550 6200
Connection ~ 2300 6200
Connection ~ 1800 5200
Connection ~ 5050 6200
Connection ~ 2800 6200
Connection ~ 2300 5200
Wire Wire Line
	10700 1900 10600 1900
Wire Wire Line
	10600 1900 10600 2000
Wire Wire Line
	10700 1500 10600 1500
Wire Wire Line
	10600 1500 10600 1400
Wire Wire Line
	10700 1600 10400 1600
Wire Wire Line
	10400 1600 10400 1500
Wire Wire Line
	10150 4600 10300 4600
Wire Wire Line
	10150 4700 10300 4700
Wire Wire Line
	10300 4800 9600 4800
Wire Wire Line
	10300 4900 9500 4900
Wire Wire Line
	10300 5000 9400 5000
Wire Wire Line
	10300 5100 9300 5100
Wire Wire Line
	9600 4800 9600 3200
Wire Wire Line
	9300 5100 9300 2900
Wire Wire Line
	9400 5000 9400 2700
Wire Wire Line
	10300 5300 3350 5300
Wire Wire Line
	3350 5300 3350 6200
Wire Wire Line
	10300 5400 5700 5400
Wire Wire Line
	5700 5400 5700 6200
Wire Wire Line
	2200 5200 2300 5200
Wire Wire Line
	1150 3100 2300 3100
Wire Wire Line
	1050 6200 1050 3200
Wire Wire Line
	1050 3200 2300 3200
Wire Wire Line
	950  3300 2300 3300
Wire Wire Line
	2300 3400 1350 3400
Wire Wire Line
	1350 3400 1350 4550
Wire Wire Line
	1350 4550 8200 4550
Wire Wire Line
	8200 4550 8200 5500
Wire Wire Line
	8200 5500 10300 5500
Wire Wire Line
	2300 3500 1550 3500
Wire Wire Line
	1550 3500 1550 4450
Wire Wire Line
	1550 4450 9500 4450
Wire Wire Line
	9500 4450 9500 4900
Wire Wire Line
	2200 3600 2300 3600
Wire Wire Line
	5700 1300 5700 1800
Wire Wire Line
	5950 1250 5950 1300
$Comp
L Device:C C10
U 1 1 5AE0EE75
P 1350 2200
F 0 "C10" H 1375 2300 50  0000 L CNN
F 1 "100n" H 1375 2100 50  0000 L CNN
F 2 "Capacitors_SMD:C_0805_HandSoldering" H 1388 2050 50  0001 C CNN
F 3 "" H 1350 2200 50  0001 C CNN
	1    1350 2200
	1    0    0    -1  
$EndComp
$Comp
L Main-rescue:GND #PWR021
U 1 1 5AE0F115
P 1350 2350
F 0 "#PWR021" H 1350 2100 50  0001 C CNN
F 1 "GND" H 1350 2200 50  0000 C CNN
F 2 "" H 1350 2350 50  0001 C CNN
F 3 "" H 1350 2350 50  0001 C CNN
	1    1350 2350
	1    0    0    -1  
$EndComp
Wire Wire Line
	5700 1300 5950 1300
Connection ~ 5950 1300
$Comp
L Main-rescue:+3V3 #PWR022
U 1 1 5AE0F768
P 6950 1200
F 0 "#PWR022" H 6950 1050 50  0001 C CNN
F 1 "+3V3" H 6950 1340 50  0000 C CNN
F 2 "" H 6950 1200 50  0001 C CNN
F 3 "" H 6950 1200 50  0001 C CNN
	1    6950 1200
	1    0    0    -1  
$EndComp
$Comp
L Device:C C14
U 1 1 5AE0F93E
P 5300 1300
F 0 "C14" H 5325 1400 50  0000 L CNN
F 1 "100n" H 5325 1200 50  0000 L CNN
F 2 "Capacitors_SMD:C_0805_HandSoldering" H 5338 1150 50  0001 C CNN
F 3 "" H 5300 1300 50  0001 C CNN
	1    5300 1300
	0    -1   -1   0   
$EndComp
Wire Wire Line
	5500 1550 5500 1650
Wire Wire Line
	5600 1300 5450 1300
Wire Wire Line
	5500 1650 5350 1650
$Comp
L Main-rescue:GND #PWR023
U 1 1 5AE0FF54
P 5150 1300
F 0 "#PWR023" H 5150 1050 50  0001 C CNN
F 1 "GND" H 5150 1150 50  0000 C CNN
F 2 "" H 5150 1300 50  0001 C CNN
F 3 "" H 5150 1300 50  0001 C CNN
	1    5150 1300
	0    1    1    0   
$EndComp
$Comp
L Main-rescue:GND #PWR024
U 1 1 5AE0FF9E
P 5050 1650
F 0 "#PWR024" H 5050 1400 50  0001 C CNN
F 1 "GND" H 5050 1500 50  0000 C CNN
F 2 "" H 5050 1650 50  0001 C CNN
F 3 "" H 5050 1650 50  0001 C CNN
	1    5050 1650
	0    1    1    0   
$EndComp
Connection ~ 5500 1650
$Comp
L Main-rescue:+3V3 #PWR025
U 1 1 5AE10068
P 5600 1200
F 0 "#PWR025" H 5600 1050 50  0001 C CNN
F 1 "+3V3" H 5600 1340 50  0000 C CNN
F 2 "" H 5600 1200 50  0001 C CNN
F 3 "" H 5600 1200 50  0001 C CNN
	1    5600 1200
	1    0    0    -1  
$EndComp
Connection ~ 5600 1300
$Comp
L Device:R R5
U 1 1 5AE10A15
P 1150 2750
F 0 "R5" V 1230 2750 50  0000 C CNN
F 1 "10k" V 1150 2750 50  0000 C CNN
F 2 "Resistors_SMD:R_0805_HandSoldering" V 1080 2750 50  0001 C CNN
F 3 "" H 1150 2750 50  0001 C CNN
	1    1150 2750
	0    1    1    0   
$EndComp
$Comp
L Main-rescue:Jumper_NC_Dual JP1
U 1 1 5AE10DF9
P 800 2750
F 0 "JP1" H 850 2650 50  0000 L CNN
F 1 "Jumper_NC_Dual" H 800 2850 50  0000 C BNN
F 2 "Pin_Headers:Pin_Header_Straight_1x03_Pitch2.54mm" H 800 2750 50  0001 C CNN
F 3 "" H 800 2750 50  0001 C CNN
	1    800  2750
	0    -1   -1   0   
$EndComp
Wire Wire Line
	900  2750 1000 2750
$Comp
L Main-rescue:GND #PWR026
U 1 1 5AE10F58
P 800 3000
F 0 "#PWR026" H 800 2750 50  0001 C CNN
F 1 "GND" H 800 2850 50  0000 C CNN
F 2 "" H 800 3000 50  0001 C CNN
F 3 "" H 800 3000 50  0001 C CNN
	1    800  3000
	1    0    0    -1  
$EndComp
$Comp
L Main-rescue:+3V3 #PWR027
U 1 1 5AE11004
P 800 2500
F 0 "#PWR027" H 800 2350 50  0001 C CNN
F 1 "+3V3" H 800 2640 50  0000 C CNN
F 2 "" H 800 2500 50  0001 C CNN
F 3 "" H 800 2500 50  0001 C CNN
	1    800  2500
	1    0    0    -1  
$EndComp
$Comp
L Main-rescue:Conn_01x01 J8
U 1 1 5AE11A34
P 1900 2200
F 0 "J8" H 1900 2300 50  0000 C CNN
F 1 "Conn_01x01" H 1900 2100 50  0000 C CNN
F 2 "Pin_Headers:Pin_Header_Straight_1x01_Pitch2.54mm" H 1900 2200 50  0001 C CNN
F 3 "" H 1900 2200 50  0001 C CNN
	1    1900 2200
	-1   0    0    1   
$EndComp
$Comp
L Main-rescue:+3V3 #PWR028
U 1 1 5AE11D48
P 900 1250
F 0 "#PWR028" H 900 1100 50  0001 C CNN
F 1 "+3V3" H 900 1390 50  0000 C CNN
F 2 "" H 900 1250 50  0001 C CNN
F 3 "" H 900 1250 50  0001 C CNN
	1    900  1250
	0    1    1    0   
$EndComp
$Comp
L Main-rescue:GND #PWR029
U 1 1 5AE11E13
P 900 1450
F 0 "#PWR029" H 900 1200 50  0001 C CNN
F 1 "GND" H 900 1300 50  0000 C CNN
F 2 "" H 900 1450 50  0001 C CNN
F 3 "" H 900 1450 50  0001 C CNN
	1    900  1450
	0    -1   -1   0   
$EndComp
Wire Wire Line
	2300 2400 1600 2400
Wire Wire Line
	1600 2400 1600 2750
Wire Wire Line
	1600 2750 1300 2750
Wire Wire Line
	1350 1950 1350 2050
Connection ~ 1350 1950
Wire Wire Line
	2100 2200 2200 2200
Wire Wire Line
	2200 1950 2200 2200
Connection ~ 2200 2200
Wire Wire Line
	8900 3500 9000 3500
Wire Wire Line
	9000 900  1400 900 
Wire Wire Line
	1400 900  1400 1550
Wire Wire Line
	8900 3600 9100 3600
Wire Wire Line
	9100 800  1300 800 
Wire Wire Line
	9000 3500 9000 900 
Wire Wire Line
	9100 3600 9100 800 
Wire Wire Line
	9450 2500 8900 2500
Wire Wire Line
	9450 1700 9450 2500
NoConn ~ 2300 2800
NoConn ~ 2300 2900
NoConn ~ 2300 3700
NoConn ~ 8900 3700
NoConn ~ 8900 3400
NoConn ~ 8900 3300
NoConn ~ 8900 2600
NoConn ~ 8900 2300
NoConn ~ 8900 2200
$Comp
L Main-rescue:PWR_FLAG #FLG030
U 1 1 5AE18365
P 5950 1250
F 0 "#FLG030" H 5950 1325 50  0001 C CNN
F 1 "PWR_FLAG" H 5950 1400 50  0000 C CNN
F 2 "" H 5950 1250 50  0001 C CNN
F 3 "" H 5950 1250 50  0001 C CNN
	1    5950 1250
	1    0    0    -1  
$EndComp
Wire Wire Line
	950  3300 950  6900
Wire Wire Line
	950  6900 3700 6900
Wire Wire Line
	3700 6900 3700 6200
Wire Wire Line
	5600 1200 5600 1300
$Comp
L Main-rescue:+3V3 #PWR031
U 1 1 5AE1BC62
P 5500 1550
F 0 "#PWR031" H 5500 1400 50  0001 C CNN
F 1 "+3V3" H 5500 1690 50  0000 C CNN
F 2 "" H 5500 1550 50  0001 C CNN
F 3 "" H 5500 1550 50  0001 C CNN
	1    5500 1550
	1    0    0    -1  
$EndComp
$Comp
L Main-rescue:GND #PWR032
U 1 1 5AE1C42E
P 5600 4100
F 0 "#PWR032" H 5600 3850 50  0001 C CNN
F 1 "GND" H 5600 3950 50  0000 C CNN
F 2 "" H 5600 4100 50  0001 C CNN
F 3 "" H 5600 4100 50  0001 C CNN
	1    5600 4100
	1    0    0    -1  
$EndComp
Wire Wire Line
	900  1350 1300 1350
Wire Wire Line
	1300 1350 1300 800 
Wire Wire Line
	1400 1550 900  1550
Wire Wire Line
	900  1650 1000 1650
Wire Wire Line
	1000 1650 1000 1950
Wire Wire Line
	1000 1950 1350 1950
$Comp
L Device:R R9
U 1 1 5AE7DF2B
P 6200 1300
F 0 "R9" V 6280 1300 50  0000 C CNN
F 1 "10" V 6200 1300 50  0000 C CNN
F 2 "Resistors_SMD:R_0805_HandSoldering" V 6130 1300 50  0001 C CNN
F 3 "" H 6200 1300 50  0001 C CNN
	1    6200 1300
	0    1    1    0   
$EndComp
Wire Wire Line
	6350 1300 6450 1300
$Comp
L Device:C C17
U 1 1 5AE7E072
P 6950 1500
F 0 "C17" H 6975 1600 50  0000 L CNN
F 1 "100n" H 6975 1400 50  0000 L CNN
F 2 "Capacitors_SMD:C_0805_HandSoldering" H 6988 1350 50  0001 C CNN
F 3 "" H 6950 1500 50  0001 C CNN
	1    6950 1500
	-1   0    0    1   
$EndComp
Wire Wire Line
	6750 1300 6950 1300
Wire Wire Line
	6950 1200 6950 1300
Connection ~ 6950 1300
$Comp
L Main-rescue:GND #PWR033
U 1 1 5AE7E290
P 6950 1650
F 0 "#PWR033" H 6950 1400 50  0001 C CNN
F 1 "GND" H 6950 1500 50  0000 C CNN
F 2 "" H 6950 1650 50  0001 C CNN
F 3 "" H 6950 1650 50  0001 C CNN
	1    6950 1650
	1    0    0    -1  
$EndComp
Wire Wire Line
	10700 1700 9450 1700
Wire Wire Line
	8900 2400 9350 2400
Wire Wire Line
	9350 2400 9350 1800
Wire Wire Line
	9350 1800 10700 1800
$Comp
L Main-rescue:Conn_01x04 J6
U 1 1 5AF47C74
P 10700 3600
F 0 "J6" H 10700 3800 50  0000 C CNN
F 1 "CON_SPI" H 10700 3300 50  0000 C CNN
F 2 "Pin_Headers:Pin_Header_Straight_1x04_Pitch2.54mm" H 10700 3600 50  0001 C CNN
F 3 "" H 10700 3600 50  0001 C CNN
	1    10700 3600
	1    0    0    -1  
$EndComp
Wire Wire Line
	10400 2800 10400 3500
Wire Wire Line
	10400 3500 10500 3500
Connection ~ 10400 2800
Wire Wire Line
	10300 2900 10300 3600
Wire Wire Line
	10300 3600 10500 3600
Connection ~ 10300 2900
Wire Wire Line
	10200 2700 10200 3700
Wire Wire Line
	10200 3700 10500 3700
Connection ~ 10200 2700
$Comp
L Main-rescue:GND #PWR034
U 1 1 5AF47F88
P 10400 3900
F 0 "#PWR034" H 10400 3650 50  0001 C CNN
F 1 "GND" H 10400 3750 50  0000 C CNN
F 2 "" H 10400 3900 50  0001 C CNN
F 3 "" H 10400 3900 50  0001 C CNN
	1    10400 3900
	1    0    0    -1  
$EndComp
Wire Wire Line
	10500 3800 10400 3800
Wire Wire Line
	10400 3800 10400 3900
Wire Wire Line
	9400 2700 10200 2700
Wire Wire Line
	9300 2900 10300 2900
Wire Wire Line
	4550 6200 4650 6200
Wire Wire Line
	2300 6200 2400 6200
Wire Wire Line
	1800 5200 1900 5200
Wire Wire Line
	5050 6200 5700 6200
Wire Wire Line
	2800 6200 3350 6200
Wire Wire Line
	2300 5200 10300 5200
Wire Wire Line
	5950 1300 5950 1350
Wire Wire Line
	5950 1300 6050 1300
Wire Wire Line
	5500 1650 5500 1800
Wire Wire Line
	5600 1300 5600 1800
Wire Wire Line
	1350 1950 2200 1950
Wire Wire Line
	2200 2200 2300 2200
Wire Wire Line
	6950 1300 6950 1350
Wire Wire Line
	10400 2800 10500 2800
Wire Wire Line
	10300 2900 10500 2900
Wire Wire Line
	10200 2700 10500 2700
$EndSCHEMATC
