EESchema Schematic File Version 4
LIBS:Main-cache
EELAYER 26 0
EELAYER END
$Descr A4 11693 8268
encoding utf-8
Sheet 2 4
Title ""
Date ""
Rev ""
Comp ""
Comment1 ""
Comment2 ""
Comment3 ""
Comment4 ""
$EndDescr
$Comp
L Device:C C4
U 1 1 5AB68C25
P 6700 3300
AR Path="/5AB68C25" Ref="C4"  Part="1" 
AR Path="/5AB675B6/5AB68C25" Ref="C4"  Part="1" 
F 0 "C4" H 6725 3400 50  0000 L CNN
F 1 "10u" H 6725 3200 50  0000 L CNN
F 2 "Capacitors_SMD:C_1206_HandSoldering" H 6738 3150 50  0001 C CNN
F 3 "" H 6700 3300 50  0001 C CNN
	1    6700 3300
	1    0    0    -1  
$EndComp
$Comp
L Device:C C2
U 1 1 5AB68C2C
P 4600 3300
AR Path="/5AB68C2C" Ref="C2"  Part="1" 
AR Path="/5AB675B6/5AB68C2C" Ref="C2"  Part="1" 
F 0 "C2" H 4625 3400 50  0000 L CNN
F 1 "1u" H 4625 3200 50  0000 L CNN
F 2 "Capacitors_SMD:C_0805_HandSoldering" H 4638 3150 50  0001 C CNN
F 3 "" H 4600 3300 50  0001 C CNN
	1    4600 3300
	1    0    0    -1  
$EndComp
$Comp
L Main-rescue:+5V #PWR01
U 1 1 5AB68C33
P 7400 2850
F 0 "#PWR01" H 7400 2700 50  0001 C CNN
F 1 "+5V" H 7400 2990 50  0000 C CNN
F 2 "" H 7400 2850 50  0001 C CNN
F 3 "" H 7400 2850 50  0001 C CNN
	1    7400 2850
	1    0    0    -1  
$EndComp
$Comp
L Main-rescue:SW_SPST SW1
U 1 1 5AB68C4D
P 3950 2900
F 0 "SW1" H 3950 3025 50  0000 C CNN
F 1 "SW_ON" H 3950 2800 50  0000 C CNN
F 2 "footprints:SolderWirePad_2x_0-8mmDrill" H 3950 2900 50  0001 C CNN
F 3 "" H 3950 2900 50  0001 C CNN
	1    3950 2900
	1    0    0    -1  
$EndComp
Wire Wire Line
	4600 3700 4600 3450
Wire Wire Line
	6700 3700 6700 3450
Wire Wire Line
	6700 2900 6700 3150
Wire Wire Line
	4150 2900 4250 2900
Wire Wire Line
	4600 2900 4600 3150
Connection ~ 5450 3700
Connection ~ 6700 2900
Wire Wire Line
	7400 2900 7400 2850
Connection ~ 4600 2900
$Comp
L Main-rescue:Conn_01x02 J1
U 1 1 5AB68C78
P 3350 2900
F 0 "J1" H 3350 3000 50  0000 C CNN
F 1 "CON_POWER" H 3350 2700 50  0000 C CNN
F 2 "footprints:SolderWirePad_2x_0-8mmDrill" H 3350 2900 50  0001 C CNN
F 3 "" H 3350 2900 50  0001 C CNN
	1    3350 2900
	-1   0    0    -1  
$EndComp
$Comp
L Main-rescue:GND #PWR02
U 1 1 5AB68C8B
P 5450 3750
F 0 "#PWR02" H 5450 3500 50  0001 C CNN
F 1 "GND" H 5450 3600 50  0000 C CNN
F 2 "" H 5450 3750 50  0001 C CNN
F 3 "" H 5450 3750 50  0001 C CNN
	1    5450 3750
	1    0    0    -1  
$EndComp
Wire Wire Line
	3550 2900 3750 2900
$Comp
L Device:CP C1
U 1 1 5AB68C95
P 4350 3300
F 0 "C1" H 4375 3400 50  0000 L CNN
F 1 "47u" H 4375 3200 50  0000 L CNN
F 2 "Capacitors_THT:CP_Radial_D6.3mm_P2.50mm" H 4388 3150 50  0001 C CNN
F 3 "" H 4350 3300 50  0001 C CNN
	1    4350 3300
	1    0    0    -1  
$EndComp
Wire Wire Line
	4350 2900 4350 3150
Wire Wire Line
	4350 3700 4350 3450
Connection ~ 4600 3700
Connection ~ 6700 3700
Wire Wire Line
	5450 3500 5450 3700
Connection ~ 4350 3700
Connection ~ 4350 2900
$Comp
L Device:C C6
U 1 1 5AB68CA8
P 6950 3300
AR Path="/5AB68CA8" Ref="C6"  Part="1" 
AR Path="/5AB675B6/5AB68CA8" Ref="C6"  Part="1" 
F 0 "C6" H 6975 3400 50  0000 L CNN
F 1 "1u" H 6975 3200 50  0000 L CNN
F 2 "Capacitors_SMD:C_0805_HandSoldering" H 6988 3150 50  0001 C CNN
F 3 "" H 6950 3300 50  0001 C CNN
	1    6950 3300
	1    0    0    -1  
$EndComp
Wire Wire Line
	6950 2900 6950 3150
Connection ~ 6950 2900
Wire Wire Line
	6950 3700 6950 3450
Connection ~ 6950 3700
$Comp
L Device:C C8
U 1 1 5ABBCB95
P 7200 3300
AR Path="/5ABBCB95" Ref="C8"  Part="1" 
AR Path="/5AB675B6/5ABBCB95" Ref="C8"  Part="1" 
F 0 "C8" H 7225 3400 50  0000 L CNN
F 1 "100n" H 7225 3200 50  0000 L CNN
F 2 "Capacitors_SMD:C_0805_HandSoldering" H 7238 3150 50  0001 C CNN
F 3 "" H 7200 3300 50  0001 C CNN
	1    7200 3300
	1    0    0    -1  
$EndComp
Wire Wire Line
	7200 2900 7200 3150
Connection ~ 7200 2900
Wire Wire Line
	7200 3700 7200 3450
$Comp
L Device:C C5
U 1 1 5AB1B310
P 6700 4750
AR Path="/5AB1B310" Ref="C5"  Part="1" 
AR Path="/5AB675B6/5AB1B310" Ref="C5"  Part="1" 
F 0 "C5" H 6725 4850 50  0000 L CNN
F 1 "10u" H 6725 4650 50  0000 L CNN
F 2 "Capacitors_SMD:C_1206_HandSoldering" H 6738 4600 50  0001 C CNN
F 3 "" H 6700 4750 50  0001 C CNN
	1    6700 4750
	1    0    0    -1  
$EndComp
$Comp
L Device:C C3
U 1 1 5AB1B316
P 4600 4750
AR Path="/5AB1B316" Ref="C3"  Part="1" 
AR Path="/5AB675B6/5AB1B316" Ref="C3"  Part="1" 
F 0 "C3" H 4625 4850 50  0000 L CNN
F 1 "1u" H 4625 4650 50  0000 L CNN
F 2 "Capacitors_SMD:C_0805_HandSoldering" H 4638 4600 50  0001 C CNN
F 3 "" H 4600 4750 50  0001 C CNN
	1    4600 4750
	1    0    0    -1  
$EndComp
Wire Wire Line
	4600 5150 4600 4900
Wire Wire Line
	6700 5150 6700 4900
Wire Wire Line
	6700 4350 6700 4600
Wire Wire Line
	4600 4350 4600 4600
Connection ~ 5450 5150
Connection ~ 6700 4350
Wire Wire Line
	7400 4350 7400 4300
Connection ~ 4600 4350
$Comp
L Main-rescue:GND #PWR03
U 1 1 5AB1B338
P 5450 5200
F 0 "#PWR03" H 5450 4950 50  0001 C CNN
F 1 "GND" H 5450 5050 50  0000 C CNN
F 2 "" H 5450 5200 50  0001 C CNN
F 3 "" H 5450 5200 50  0001 C CNN
	1    5450 5200
	1    0    0    -1  
$EndComp
Connection ~ 6700 5150
Wire Wire Line
	5450 4950 5450 5150
$Comp
L Device:C C7
U 1 1 5AB1B342
P 6950 4750
AR Path="/5AB1B342" Ref="C7"  Part="1" 
AR Path="/5AB675B6/5AB1B342" Ref="C7"  Part="1" 
F 0 "C7" H 6975 4850 50  0000 L CNN
F 1 "1u" H 6975 4650 50  0000 L CNN
F 2 "Capacitors_SMD:C_0805_HandSoldering" H 6988 4600 50  0001 C CNN
F 3 "" H 6950 4750 50  0001 C CNN
	1    6950 4750
	1    0    0    -1  
$EndComp
Wire Wire Line
	6950 4350 6950 4600
Connection ~ 6950 4350
Wire Wire Line
	6950 5150 6950 4900
Connection ~ 6950 5150
$Comp
L Device:C C9
U 1 1 5AB1B34C
P 7200 4750
AR Path="/5AB1B34C" Ref="C9"  Part="1" 
AR Path="/5AB675B6/5AB1B34C" Ref="C9"  Part="1" 
F 0 "C9" H 7225 4850 50  0000 L CNN
F 1 "100n" H 7225 4650 50  0000 L CNN
F 2 "Capacitors_SMD:C_0805_HandSoldering" H 7238 4600 50  0001 C CNN
F 3 "" H 7200 4750 50  0001 C CNN
	1    7200 4750
	1    0    0    -1  
$EndComp
Wire Wire Line
	7200 4350 7200 4600
Connection ~ 7200 4350
Wire Wire Line
	7200 5150 7200 4900
$Comp
L Device:R R2
U 1 1 5AB1B35E
P 6300 4950
F 0 "R2" V 6380 4950 50  0000 C CNN
F 1 "107k" V 6300 4950 50  0000 C CNN
F 2 "Resistors_SMD:R_0805_HandSoldering" V 6230 4950 50  0001 C CNN
F 3 "" H 6300 4950 50  0001 C CNN
	1    6300 4950
	1    0    0    -1  
$EndComp
$Comp
L Device:R R4
U 1 1 5AB1B364
P 6300 4550
F 0 "R4" V 6380 4550 50  0000 C CNN
F 1 "178k" V 6300 4550 50  0000 C CNN
F 2 "Resistors_SMD:R_0805_HandSoldering" V 6230 4550 50  0001 C CNN
F 3 "" H 6300 4550 50  0001 C CNN
	1    6300 4550
	1    0    0    -1  
$EndComp
Wire Wire Line
	6300 5150 6300 5100
Connection ~ 6300 5150
$Comp
L Main-rescue:+5V #PWR04
U 1 1 5AB1B3A7
P 4400 4300
F 0 "#PWR04" H 4400 4150 50  0001 C CNN
F 1 "+5V" H 4400 4440 50  0000 C CNN
F 2 "" H 4400 4300 50  0001 C CNN
F 3 "" H 4400 4300 50  0001 C CNN
	1    4400 4300
	1    0    0    -1  
$EndComp
Wire Wire Line
	4400 4350 4400 4300
$Comp
L Main-rescue:+3V3 #PWR05
U 1 1 5AB1BDD1
P 7400 4300
F 0 "#PWR05" H 7400 4150 50  0001 C CNN
F 1 "+3V3" H 7400 4440 50  0000 C CNN
F 2 "" H 7400 4300 50  0001 C CNN
F 3 "" H 7400 4300 50  0001 C CNN
	1    7400 4300
	1    0    0    -1  
$EndComp
$Comp
L Main-rescue:PWR_FLAG #FLG06
U 1 1 5AB41673
P 4250 3750
F 0 "#FLG06" H 4250 3825 50  0001 C CNN
F 1 "PWR_FLAG" H 4250 3900 50  0000 C CNN
F 2 "" H 4250 3750 50  0001 C CNN
F 3 "" H 4250 3750 50  0001 C CNN
	1    4250 3750
	-1   0    0    1   
$EndComp
$Comp
L Main-rescue:PWR_FLAG #FLG07
U 1 1 5AB424A6
P 4250 2850
F 0 "#FLG07" H 4250 2925 50  0001 C CNN
F 1 "PWR_FLAG" H 4250 3000 50  0000 C CNN
F 2 "" H 4250 2850 50  0001 C CNN
F 3 "" H 4250 2850 50  0001 C CNN
	1    4250 2850
	1    0    0    -1  
$EndComp
Wire Wire Line
	4250 2900 4250 2850
Connection ~ 4250 2900
Wire Wire Line
	4250 3750 4250 3700
Connection ~ 4250 3700
Wire Wire Line
	3550 3000 3650 3000
Wire Wire Line
	3650 3000 3650 3700
$Comp
L Main-rescue:LP2951 U1
U 1 1 5AE896FD
P 5450 3000
F 0 "U1" H 5100 3250 50  0000 C CNN
F 1 "LP2951" H 5850 3250 50  0000 R CNN
F 2 "Housings_SOIC:SOIC-8_3.9x4.9mm_Pitch1.27mm" H 5450 3425 50  0001 C CIN
F 3 "" H 5450 3000 50  0001 C CNN
	1    5450 3000
	1    0    0    -1  
$EndComp
Wire Wire Line
	4950 3100 4850 3100
Wire Wire Line
	4850 3100 4850 3700
Connection ~ 4850 3700
Wire Wire Line
	5950 3200 6050 3200
Wire Wire Line
	6050 3200 6050 3100
Wire Wire Line
	6050 3100 5950 3100
Wire Wire Line
	5950 3000 6050 3000
Wire Wire Line
	6050 3000 6050 2900
Wire Wire Line
	5950 2900 6050 2900
Connection ~ 6050 2900
Wire Wire Line
	3650 3700 4250 3700
$Comp
L Main-rescue:LP2951 U2
U 1 1 5AE8A758
P 5450 4450
F 0 "U2" H 5100 4700 50  0000 C CNN
F 1 "LP2951" H 5850 4700 50  0000 R CNN
F 2 "Housings_SOIC:SOIC-8_3.9x4.9mm_Pitch1.27mm" H 5450 4875 50  0001 C CIN
F 3 "" H 5450 4450 50  0001 C CNN
	1    5450 4450
	1    0    0    -1  
$EndComp
Wire Wire Line
	5950 4650 6150 4650
Wire Wire Line
	6150 4650 6150 4750
Wire Wire Line
	6150 4750 6300 4750
Wire Wire Line
	6300 4700 6300 4750
Connection ~ 6300 4750
Wire Wire Line
	5950 4350 6300 4350
Wire Wire Line
	6300 4350 6300 4400
Wire Wire Line
	4400 4350 4600 4350
Wire Wire Line
	4950 4550 4850 4550
Wire Wire Line
	4850 4550 4850 5150
Connection ~ 6300 4350
Wire Wire Line
	4600 5150 4850 5150
Wire Wire Line
	5950 4450 6050 4450
Wire Wire Line
	6050 4450 6050 4550
Wire Wire Line
	6050 4550 5950 4550
Connection ~ 6050 5150
Connection ~ 6050 4550
Connection ~ 4850 5150
Wire Wire Line
	5450 3700 5450 3750
Wire Wire Line
	5450 3700 6700 3700
Wire Wire Line
	6700 2900 6950 2900
Wire Wire Line
	4600 2900 4950 2900
Wire Wire Line
	4600 3700 4850 3700
Wire Wire Line
	6700 3700 6950 3700
Wire Wire Line
	4350 3700 4600 3700
Wire Wire Line
	4350 2900 4600 2900
Wire Wire Line
	6950 2900 7200 2900
Wire Wire Line
	6950 3700 7200 3700
Wire Wire Line
	7200 2900 7400 2900
Wire Wire Line
	5450 5150 5450 5200
Wire Wire Line
	5450 5150 6050 5150
Wire Wire Line
	6700 4350 6950 4350
Wire Wire Line
	4600 4350 4950 4350
Wire Wire Line
	6700 5150 6950 5150
Wire Wire Line
	6950 4350 7200 4350
Wire Wire Line
	6950 5150 7200 5150
Wire Wire Line
	7200 4350 7400 4350
Wire Wire Line
	6300 5150 6700 5150
Wire Wire Line
	4250 2900 4350 2900
Wire Wire Line
	4250 3700 4350 3700
Wire Wire Line
	4850 3700 5450 3700
Wire Wire Line
	6050 2900 6700 2900
Wire Wire Line
	6300 4750 6300 4800
Wire Wire Line
	6300 4350 6700 4350
Wire Wire Line
	6050 5150 6300 5150
Wire Wire Line
	6050 4550 6050 5150
Wire Wire Line
	4850 5150 5450 5150
$EndSCHEMATC
