(module Bourns_PEC12R-3xxxF-Sxxxx (layer F.Cu) (tedit 5AE22894)
  (descr http://www.bourns.com/docs/Product-Datasheets/PEC12R.pdf)
  (tags "ROTARY ENCODER BOURNS")
  (fp_text reference REF** (at 2.5 -2.5) (layer F.SilkS)
    (effects (font (size 1 1) (thickness 0.15)))
  )
  (fp_text value Bourns_PEC12R-3xxxF-Sxxxx (at 2.5 17) (layer F.Fab)
    (effects (font (size 1 1) (thickness 0.15)))
  )
  (fp_line (start 8.7 13.7) (end 8.7 9) (layer F.SilkS) (width 0.12))
  (fp_line (start -3.7 0.3) (end -3.7 5) (layer F.SilkS) (width 0.12))
  (fp_line (start -3.7 13.7) (end -2 13.7) (layer F.SilkS) (width 0.12))
  (fp_line (start 7 0.3) (end 8.7 0.3) (layer F.SilkS) (width 0.12))
  (fp_line (start -3.7 0.3) (end -2 0.3) (layer F.SilkS) (width 0.12))
  (fp_line (start -3.7 13.7) (end 8.7 13.7) (layer F.Fab) (width 0.1))
  (fp_line (start 8.7 0.3) (end -3.7 0.3) (layer F.Fab) (width 0.1))
  (fp_line (start -3.7 13.7) (end -3.7 0.3) (layer F.Fab) (width 0.1))
  (fp_text user %R (at 2.5 7) (layer F.Fab)
    (effects (font (size 1 1) (thickness 0.15)))
  )
  (fp_line (start 8.7 5) (end 8.7 0.3) (layer F.SilkS) (width 0.12))
  (fp_line (start -3.7 9) (end -3.7 13.7) (layer F.SilkS) (width 0.12))
  (fp_line (start 7 13.7) (end 8.7 13.7) (layer F.SilkS) (width 0.12))
  (fp_line (start -5 -1.5) (end 10 -1.5) (layer F.CrtYd) (width 0.05))
  (fp_line (start -5 -1.5) (end -5 16) (layer F.CrtYd) (width 0.05))
  (fp_line (start 10 16) (end 10 -1.5) (layer F.CrtYd) (width 0.05))
  (fp_line (start 10 16) (end -5 16) (layer F.CrtYd) (width 0.05))
  (fp_circle (center 2.5 7) (end -0.5 7) (layer F.SilkS) (width 0.12))
  (fp_line (start 8.7 13.7) (end 8.7 0.3) (layer F.Fab) (width 0.1))
  (pad 4 thru_hole circle (at 0 0) (size 1.8 1.8) (drill 1.1) (layers *.Cu *.Mask))
  (pad 5 thru_hole circle (at 5 0) (size 1.8 1.8) (drill 1.1) (layers *.Cu *.Mask))
  (pad 3 thru_hole circle (at 5 14.5) (size 1.8 1.8) (drill 1.1) (layers *.Cu *.Mask))
  (pad 2 thru_hole circle (at 2.5 14.5) (size 1.8 1.8) (drill 1.1) (layers *.Cu *.Mask))
  (pad 1 thru_hole circle (at 0 14.5) (size 1.8 1.8) (drill 1.1) (layers *.Cu *.Mask))
  (pad "" np_thru_hole oval (at -3.1 7) (size 2 3) (drill oval 2 3) (layers *.Cu))
  (pad "" np_thru_hole oval (at 8.1 7) (size 2 3) (drill oval 2 3) (layers *.Cu))
  (model ${KISYS3DMOD}/Buttons_Switches_THT.3dshapes/KSA_Tactile_SPST.wrl
    (at (xyz 0 0 0))
    (scale (xyz 1 1 1))
    (rotate (xyz 0 0 0))
  )
)
