(module EA_DOGMxxx-A (layer F.Cu) (tedit 5AE21F65)
  (descr https://www.lcd-module.de/pdf/doma/dog-m.pdf)
  (tags LCD)
  (fp_text reference REF** (at 4 -5) (layer F.SilkS)
    (effects (font (size 1 1) (thickness 0.15)))
  )
  (fp_text value EA_DOGMxxx-A (at 7 54) (layer F.Fab)
    (effects (font (size 1 1) (thickness 0.15)))
  )
  (fp_line (start 4.94 -1.37) (end 4.94 49.63) (layer F.SilkS) (width 0.12))
  (fp_line (start 4.94 49.63) (end 19.44 49.63) (layer F.SilkS) (width 0.12))
  (fp_line (start 19.44 49.63) (end 19.44 -1.37) (layer F.SilkS) (width 0.12))
  (fp_line (start 19.44 -1.37) (end 4.94 -1.37) (layer F.SilkS) (width 0.12))
  (fp_text user %R (at 13.97 24.13) (layer F.Fab)
    (effects (font (size 1 1) (thickness 0.15)))
  )
  (fp_line (start -1 -4.37) (end 28.94 -4.37) (layer F.CrtYd) (width 0.05))
  (fp_line (start 28.94 -4.37) (end 28.94 52.63) (layer F.CrtYd) (width 0.05))
  (fp_line (start 28.94 52.63) (end -1 52.63) (layer F.CrtYd) (width 0.05))
  (fp_line (start -1 52.63) (end -1 -4.37) (layer F.CrtYd) (width 0.05))
  (fp_line (start 27.94 50.26) (end 27.94 51.63) (layer F.SilkS) (width 0.12))
  (fp_line (start 0 50.26) (end 0 51.63) (layer F.SilkS) (width 0.12))
  (fp_line (start 0 4.54) (end 0 43.72) (layer F.SilkS) (width 0.12))
  (fp_line (start 0 -3.37) (end 27.94 -3.37) (layer F.SilkS) (width 0.12))
  (fp_line (start 27.94 -3.37) (end 27.94 -2) (layer F.SilkS) (width 0.12))
  (fp_line (start 27.94 51.63) (end 0 51.63) (layer F.SilkS) (width 0.12))
  (fp_line (start 0 -2) (end 0 -3.37) (layer F.SilkS) (width 0.12))
  (fp_line (start 0 -1) (end 1 0) (layer F.Fab) (width 0.1))
  (fp_line (start 1 0) (end 0 1) (layer F.Fab) (width 0.1))
  (fp_line (start 0 1) (end 0 51.63) (layer F.Fab) (width 0.1))
  (fp_line (start 0 -3.37) (end 27.94 -3.37) (layer F.Fab) (width 0.1))
  (fp_line (start 27.94 -3.37) (end 27.94 51.63) (layer F.Fab) (width 0.1))
  (fp_line (start 27.94 51.63) (end 0 51.63) (layer F.Fab) (width 0.1))
  (fp_line (start 0 -1) (end 0 -3.37) (layer F.Fab) (width 0.1))
  (pad 2 thru_hole circle (at 0 2.54) (size 1.5 1.5) (drill 1) (layers *.Cu *.Mask))
  (pad 19 thru_hole circle (at 0 45.72) (size 1.5 1.5) (drill 1) (layers *.Cu *.Mask))
  (pad 20 thru_hole circle (at 0 48.26) (size 1.5 1.5) (drill 1) (layers *.Cu *.Mask))
  (pad 31 thru_hole circle (at 27.94 22.86) (size 1.5 1.5) (drill 1) (layers *.Cu *.Mask))
  (pad 32 thru_hole circle (at 27.94 20.32) (size 1.5 1.5) (drill 1) (layers *.Cu *.Mask))
  (pad 33 thru_hole circle (at 27.94 17.78) (size 1.5 1.5) (drill 1) (layers *.Cu *.Mask))
  (pad 34 thru_hole circle (at 27.94 15.24) (size 1.5 1.5) (drill 1) (layers *.Cu *.Mask))
  (pad 35 thru_hole circle (at 27.94 12.7) (size 1.5 1.5) (drill 1) (layers *.Cu *.Mask))
  (pad 36 thru_hole circle (at 27.94 10.16) (size 1.5 1.5) (drill 1) (layers *.Cu *.Mask))
  (pad 37 thru_hole circle (at 27.94 7.62) (size 1.5 1.5) (drill 1) (layers *.Cu *.Mask))
  (pad 38 thru_hole circle (at 27.94 5.08) (size 1.5 1.5) (drill 1) (layers *.Cu *.Mask))
  (pad 39 thru_hole circle (at 27.94 2.54) (size 1.5 1.5) (drill 1) (layers *.Cu *.Mask))
  (pad 40 thru_hole circle (at 27.94 0) (size 1.5 1.5) (drill 1) (layers *.Cu *.Mask))
  (pad 1 thru_hole rect (at 0 0) (size 1.5 1.5) (drill 1) (layers *.Cu *.Mask))
  (pad 21 thru_hole circle (at 27.94 48.26) (size 1.5 1.5) (drill 1) (layers *.Cu *.Mask))
  (pad 22 thru_hole circle (at 27.94 45.72) (size 1.5 1.5) (drill 1) (layers *.Cu *.Mask))
  (pad 23 thru_hole circle (at 27.94 43.18) (size 1.5 1.5) (drill 1) (layers *.Cu *.Mask))
  (pad 24 thru_hole circle (at 27.94 40.64) (size 1.5 1.5) (drill 1) (layers *.Cu *.Mask))
  (pad 25 thru_hole circle (at 27.94 38.1) (size 1.5 1.5) (drill 1) (layers *.Cu *.Mask))
  (pad 26 thru_hole circle (at 27.94 35.56) (size 1.5 1.5) (drill 1) (layers *.Cu *.Mask))
  (pad 27 thru_hole circle (at 27.94 33.02) (size 1.5 1.5) (drill 1) (layers *.Cu *.Mask))
  (pad 28 thru_hole circle (at 27.94 30.48) (size 1.5 1.5) (drill 1) (layers *.Cu *.Mask))
  (pad 29 thru_hole circle (at 27.94 27.94) (size 1.5 1.5) (drill 1) (layers *.Cu *.Mask))
  (pad 30 thru_hole circle (at 27.94 25.4) (size 1.5 1.5) (drill 1) (layers *.Cu *.Mask))
)
