(module R_2818_HandSoldering (layer F.Cu) (tedit 5AE8B11C)
  (descr "Resistor SMD 2818, hand soldering, Vishay (see WSL-VISHAY.PDF)")
  (tags "resistor 2818")
  (attr smd)
  (fp_text reference REF** (at 0 -3.56) (layer F.SilkS)
    (effects (font (size 1 1) (thickness 0.15)))
  )
  (fp_text value R_2818_HandSoldering (at 0 4.01) (layer F.Fab)
    (effects (font (size 1 1) (thickness 0.15)))
  )
  (fp_text user %R (at 0 0) (layer F.Fab)
    (effects (font (size 1 1) (thickness 0.15)))
  )
  (fp_line (start -3.55 2.3) (end -3.55 -2.3) (layer F.Fab) (width 0.1))
  (fp_line (start 3.55 2.3) (end -3.55 2.3) (layer F.Fab) (width 0.1))
  (fp_line (start 3.55 -2.3) (end 3.55 2.3) (layer F.Fab) (width 0.1))
  (fp_line (start -3.55 -2.3) (end 3.55 -2.3) (layer F.Fab) (width 0.1))
  (fp_line (start -2.03 2.74) (end 2.03 2.74) (layer F.SilkS) (width 0.12))
  (fp_line (start -2.03 -2.74) (end 2.03 -2.74) (layer F.SilkS) (width 0.12))
  (fp_line (start -6.67 -2.8) (end 6.66 -2.8) (layer F.CrtYd) (width 0.05))
  (fp_line (start -6.67 -2.8) (end -6.67 2.8) (layer F.CrtYd) (width 0.05))
  (fp_line (start 6.66 2.8) (end 6.66 -2.8) (layer F.CrtYd) (width 0.05))
  (fp_line (start 6.66 2.8) (end -6.67 2.8) (layer F.CrtYd) (width 0.05))
  (pad 1 smd rect (at -4.06 0) (size 4.7 5.1) (layers F.Cu F.Paste F.Mask))
  (pad 2 smd rect (at 4.06 0) (size 4.7 5.1) (layers F.Cu F.Paste F.Mask))
  (model ${KISYS3DMOD}/Resistors_SMD.3dshapes/R_2816.wrl
    (at (xyz 0 0 0))
    (scale (xyz 1 1 1))
    (rotate (xyz 0 0 0))
  )
)
