M48
;DRILL file {KiCad 4.0.7} date Wed May 16 20:58:53 2018
;FORMAT={-:-/ absolute / inch / decimal}
FMAT,2
INCH,TZ
T1C0.012
T2C0.031
T3C0.032
T4C0.039
T5C0.051
%
G90
G05
M72
T1
X0.05Y-2.55
X0.05Y-3.
X0.1Y-0.1
X0.1Y-1.4
X0.1Y-1.75
X0.15Y-3.8
X0.3Y-0.55
X0.35Y-0.35
X0.35Y-0.45
X0.35Y-0.8
X0.35Y-0.95
X0.375Y-3.425
X0.4Y-0.65
X0.4Y-1.15
X0.4Y-1.4
X0.4Y-1.75
X0.4Y-2.15
X0.4Y-3.3
X0.45Y-0.4
X0.45Y-1.2
X0.5Y-0.6
X0.5Y-1.3
X0.5Y-3.
X0.5Y-3.6
X0.55Y-0.5
X0.55Y-0.8
X0.55Y-1.1
X0.6Y-2.15
X0.65Y-1.2
X0.7Y-2.7
X0.7Y-2.8
X0.75Y-0.75
X0.75Y-1.75
X0.75Y-2.9
X0.75Y-3.3
X0.85Y-1.
X0.85Y-2.45
X0.85Y-2.8
X0.85Y-2.95
X0.9Y-1.2
X0.9Y-1.55
X0.9Y-2.
X0.9Y-2.25
X0.9Y-2.65
X0.9Y-3.15
X0.95Y-0.3
X0.95Y-0.5
X0.95Y-2.2
X0.95Y-3.05
X1.Y-0.75
X1.Y-2.15
X1.Y-2.35
X1.Y-2.4
X1.Y-2.75
X1.Y-2.85
X1.Y-3.
X1.025Y-2.425
X1.05Y-2.2
X1.05Y-2.85
X1.1Y-0.4
X1.1Y-1.
X1.1Y-1.2
X1.1Y-1.975
X1.1Y-2.025
X1.1Y-2.45
X1.1Y-2.55
X1.1Y-3.
X1.1Y-3.6
X1.15Y-1.7
X1.15Y-1.8
X1.15Y-1.975
X1.15Y-2.025
X1.175Y-3.8
X1.2Y-1.3
X1.2Y-1.75
X1.2Y-2.35
X1.2Y-2.5
X1.2Y-2.8
X1.2Y-2.9
X1.225Y-2.175
X1.25Y-2.05
X1.25Y-2.65
X1.3Y-0.4
X1.3Y-2.2
X1.3Y-2.25
X1.3Y-3.3
X1.3Y-3.6
X1.35Y-1.65
X1.35Y-1.8
X1.35Y-2.3
X1.35Y-2.75
X1.375Y-2.025
X1.4Y-0.35
X1.4Y-1.9
X1.4Y-2.5
X1.45Y-0.8
X1.45Y-1.95
X1.45Y-2.3
X1.45Y-2.9
X1.5Y-0.9
X1.5Y-1.25
X1.5Y-1.35
X1.5Y-2.25
X1.5Y-2.6
X1.5Y-2.9
X1.5Y-3.25
X1.5Y-3.55
X1.55Y-0.2
X1.55Y-1.65
X1.55Y-1.85
X1.55Y-2.65
X1.55Y-2.75
X1.575Y-2.9
X1.6Y-0.1
X1.6Y-1.15
X1.6Y-1.45
X1.6Y-3.55
X1.625Y-2.45
X1.625Y-3.725
X1.65Y-0.25
X1.65Y-0.85
X1.65Y-1.75
X1.65Y-2.1
X1.65Y-3.05
X1.7Y-0.55
X1.7Y-0.7
X1.725Y-0.975
X1.75Y-0.2
X1.75Y-0.8
X1.75Y-1.5
X1.75Y-3.25
X1.8Y-0.925
X1.825Y-1.075
X1.85Y-0.55
X1.85Y-0.85
X1.85Y-1.3
X1.85Y-1.75
X1.85Y-2.
X1.85Y-2.9
X1.9Y-0.4
X1.925Y-2.45
X1.95Y-1.975
X2.Y-0.95
X2.05Y-0.7
X2.05Y-2.35
X2.1Y-1.35
X2.1Y-2.15
X2.1Y-2.25
X2.15Y-0.95
X2.15Y-1.4
X2.15Y-1.5
X2.15Y-1.75
X2.15Y-2.425
X2.2Y-1.3
X2.2Y-3.15
X2.25Y-0.55
X2.25Y-1.35
X2.25Y-1.5
X2.3Y-2.45
X2.325Y-0.75
X2.35Y-1.3
X2.35Y-1.65
X2.35Y-1.75
X2.375Y-1.425
X2.4Y-1.1
X2.4Y-2.35
X2.4Y-2.65
X2.4Y-3.55
X2.45Y-0.85
X2.475Y-1.175
X2.475Y-1.275
X2.475Y-1.45
X2.5Y-1.55
X2.5Y-2.4
X2.5Y-3.
X2.525Y-0.8
X2.55Y-1.975
X2.55Y-2.025
X2.55Y-3.2
X2.575Y-1.075
X2.575Y-1.175
X2.575Y-1.375
X2.6Y-0.95
X2.6Y-1.5
X2.6Y-1.6
X2.6Y-1.75
X2.6Y-2.45
X2.65Y-1.05
X2.65Y-1.8
X2.65Y-2.675
X2.7Y-0.65
X2.7Y-1.45
X2.7Y-1.9
X2.7Y-2.6
X2.75Y-0.95
X2.775Y-1.525
X2.8Y-2.65
X2.85Y-1.15
X2.9Y-0.1
X2.9Y-0.2
X2.9Y-0.55
X2.9Y-1.05
X2.9Y-3.
X2.925Y-0.15
X2.925Y-3.2
X2.95Y-1.
X2.95Y-1.525
X2.95Y-1.75
X2.95Y-2.5
X2.975Y-0.1
X2.975Y-0.2
X3.Y-0.15
X3.Y-0.55
X3.Y-1.55
X3.025Y-0.85
X3.05Y-0.1
X3.05Y-0.2
X3.075Y-0.15
X3.075Y-1.05
X3.1Y-0.55
X3.1Y-3.75
X3.125Y-0.1
X3.125Y-0.2
X3.15Y-0.15
X3.15Y-1.75
X3.15Y-2.25
X3.2Y-0.1
X3.2Y-0.2
X3.2Y-0.55
X3.2Y-1.525
X3.225Y-0.15
X3.225Y-0.925
X3.7Y-1.525
X3.8Y-1.1
T2
X2.6Y-3.65
X2.6Y-3.7484
T3
X0.375Y-0.1
X0.525Y-0.1
X1.95Y-3.675
X1.95Y-3.825
X2.25Y-3.675
X2.25Y-3.825
T4
X0.3Y-2.35
X0.3Y-2.45
X0.3Y-2.55
X0.3Y-2.65
X0.3Y-2.75
X0.3Y-3.25
X0.3Y-3.35
X0.3Y-3.45
X0.3Y-3.55
X0.3Y-3.65
X0.5Y-2.75
X1.3Y-2.95
X1.75Y-1.85
X1.85Y-1.85
X1.8685Y-0.1043
X1.95Y-1.85
X1.95Y-2.75
X1.95Y-2.85
X1.95Y-2.95
X1.9685Y-0.1043
X2.05Y-1.85
X2.0685Y-0.1043
X2.3Y-2.15
X2.3Y-2.25
X2.4Y-2.15
X2.4Y-2.25
X2.5Y-2.15
X2.5Y-2.25
X2.6Y-2.15
X2.6Y-2.25
X2.7Y-2.15
X2.7Y-2.25
T5
X3.45Y-3.7
X3.65Y-3.7
T0
M30
