%TF.GenerationSoftware,KiCad,Pcbnew,4.0.7*%
%TF.CreationDate,2018-05-16T20:54:07+02:00*%
%TF.ProjectId,ElectronicLoad,456C656374726F6E69634C6F61642E6B,rev?*%
%TF.FileFunction,Profile,NP*%
%FSLAX46Y46*%
G04 Gerber Fmt 4.6, Leading zero omitted, Abs format (unit mm)*
G04 Created by KiCad (PCBNEW 4.0.7) date Wed May 16 20:54:07 2018*
%MOMM*%
%LPD*%
G01*
G04 APERTURE LIST*
%ADD10C,0.100000*%
%ADD11C,0.150000*%
G04 APERTURE END LIST*
D10*
D11*
X0Y-100000000D02*
X0Y0D01*
X100000000Y-100000000D02*
X0Y-100000000D01*
X100000000Y0D02*
X100000000Y-100000000D01*
X0Y0D02*
X100000000Y0D01*
M02*
